[
  {
    "name": "Alex Friesen",
    "description": "Nach einem gut gefüllten Tag sieht der Abend für Alex vor, köstliche Mahlzeiten mit Freunden zu genießen und dabei tolle Gespräche zu führen. Es geht ihr hauptsächlich darum, in guter Gesellschaft unvergessliche Momente zu schaffen ❤\uFE0F\n\nDas Erforschen neuer Orte, das Kennenlernen verschiedener Menschen und das Eintauchen in unterschiedliche Kulturen während ihrer Reisen, sind die Leidenschaften, die Alex' Geist antreiben. Ob spontaner Roadtrip oder sorgfältig geplante Auslandsreise – Alex ist immer bereit für das nächste aufregende Abenteuer.\n\nMusik ist ein weiterer Eckpfeiler in Alex' Leben. Man findet sie des Öfteren auf Festivals oder Konzerten.\n\nWenn das Wochenende naht, trifft man Alex in gemütlichen Bars, die Gesellschaft von Freunden genießend und ein wohlverdientes Getränk schlürfend.\n\nDie Begeisterung für ihre Arbeit in unserem Sales Team entspringt aus dem direkten Kundenkontakt und der Möglichkeit, auf individuelle Bedürfnisse einzugehen, was ihr jeden Tag neue Einblicke in verschiedene Branchen und Unternehmen bietet. Ihr Ziel ist es, Kunden zufriedenzustellen und ihnen effektive Lösungen anzubieten, um gemeinsam erfolgreich zu sein.",
    "image": "/AlexFriesen.webp"
  },
  {
    "name": "Alex Grill",
    "description": "Alexander ist im schönen Frankfurt am Main geboren und hat in Hamburg Medientechnik studiert. Er hat sich schon immer gerne mit Computern beschäftigt, zunächst jedoch eher als Unterhaltungsmedium. So war sein erster Schritt in Richtung Webentwicklung die Aufgabe des Tech-Supporters im Bekanntenkreis, der er auch heute noch nachgeht. Die nächsten Schritte waren dann schnell getan und so fand er immer mehr Gefallen daran, eigene kleine Webseiten zu bauen und mit ihnen zu experimentieren. So wurde letztlich aus dem Hobby sein Beruf, an dem ihn vor allem die Arbeit im Backend und die Datenverarbeitung im Hintergrund fasziniert. Seine Freizeit verbringt er gerne mit seinen Freunden und dem ein oder anderen guten PC-Spiel, als begeisterter Zuschauer von spannenden E-Sport-Matches oder umgeben von seiner Lieblingsmusik Trance. Sein Lieblingsreiseziel ist Spanien, weshalb er es sich zur Aufgabe gemacht hat, irgendwann die Sprache in Perfektion zu beherrschen.",
    "image": "/AlexanderGrill.webp"
  },
  {
    "name": "Alina Krüger",
    "description": "Alina bringt als globale Surfnomadin ihren Glow in unser Online Marketing ein. Erstellen von Content, Suchmaschinenoptimierung - On- und Off-Page, Analyse und Monitoring von Kampagnen sind ihre Steckenpferde, Tools wie Sistrix, die Google Search Console, Webpagetest oder ahrefs ihr natürliches Habitat. Wahre Freiheit ist die Möglichkeit, das Leben so zu gestalten, wie man möchte und Zeit mit den Menschen zu verbringen, die man mag. Für Alina bedeutet das: Neverending Roadtrips mit eigenem Bulli und Surfboard, um in der Sonne unter Pinien zu sitzen und aufs Meer zu schauen. Es ist der Vibe, der ihr dann sagt: Hier bist Du richtig. Ist sie in ihrer Wahlheimat Köln, holt sie sich die Welt nach Hause und bearbeitet Fotos, werkelt am Bus oder spaziert durch die Stadt - am liebsten mit einem kühlen Getränk in der Hand und für jede spontane Spikeball-Session gewappnet.",
    "image": "/Alina.webp"
  },
  {
    "name": "Ann-Caroline Feike",
    "description": "Zunächst in Köln aufgewachsen, ist Caro nun überzeugte Bonnerin und dort nicht mehr wegzudenken. Über gute persönliche Kontakte zu unserem sympathischen Colorsquad konnten wir die Diplom-Biologin für Ambient gewinnen. Ihre Doktor-Arbeit hat sie bereits vor Ewigkeiten in den Dornröschenschlaf versetzt und liegt mittlerweile schon seit 10 Jahren unter ihrem Bett.\n\nNach langer und wertvoller Erfahrung in konzernähnlichen Strukturen als Projektmanagerin zu arbeiten, hat Caro die Lust gepackt einen weiteren Wandel herbeizuführen und den Schritt in die agile Welt gewagt: Mutig, Fokussiert und mit hohem Commitment.\n\nAls Scrum Masterin begleitet Caro nun unsere Teams und Kunden, sorgt für reibungslose Abläufe in ihren Projekten, räumt Hindernisse aus dem Weg und verteilt links und rechts ihr Wissen über agile Prinzipien wie Blütenstaub. Dabei hat sie immer ein offenes Ohr oder einen lustigen Spruch parat.\n\nPrivat hat sie es sich zur Aufgabe gemacht, entkräftete Hummeln zu retten. Zudem hört und produziert sie viel Musik und ist Screamerin in einer Syntieblackmetalband. Caro liebt die Farbe unter der Haut und hat sich schon einige Tattoos stechen lassen, darunter auch eines, das unserem neuen Ambient-Maskotchen „Hubby“ verdächtig ähnelt. Zufall oder Teil der Metamorphose?!\n\nAbends schaut sie gerne Horrorfilme mit Sushi und einem eiskalten Pils oder liest einen guten Thriller. In der Buchhandlung fühlt sie sich schon heimisch und deckt sich regelmäßig mit neuen spannenden Geschichten ein. Immer mit dabei, ihr Chihuahua Manni.",
    "image": "/Ann-Caroline.webp"
  },
  {
    "name": "Arne Ebner",
    "description": "Als Senior UX-Designer bringt Arne sein umfassendes Fachwissen und den richtigen Flow mit ins Ambient-Team. Seinen Traum von einer Karriere als UX-Designer konnte er im Kindergarten zwar noch nicht richtig benennen, trotzdem wirkt sein weiterer Weg fast ein bisschen vorbestimmt. Aufgewachsen in einer Kunst-liebenden Familie, interessierte er sich schon immer für das farbenfrohe und faszinierende Handwerk. So war es keine Überraschung, dass er in der Oberstufe den Kunst-LK belegte und nach seinem Abschluss im Kunstmuseum Bonn arbeitete. Um aus seiner Leidenschaft einen Beruf zu zaubern, der ihm auch langfristig die Miete zahlt, ist Arne schließlich beim Design gelandet. Gerade am UX-Design gefällt es ihm besonders, direkt an der Schnittstelle zwischen Mensch und Produkt zu arbeiten. Und so war ein begabter UX-Designer geboren. Zu seinen liebsten Hobbys zählt - wie könnte es bei einem kreativen Menschen anders sein - die Musik. Was 2000 unschuldig mit einer E-Gitarre begann, entwickelte sich 2008 zu einer eigenen Band mit deutschlandweiten Auftritten. Einen alternativen Weg um richtig abzuschalten, findet Arne in seiner Liebe zu Videospielen, wobei er auch hier stets mit dem geschulten Auge auf die Interface-Designs schaut. Außerhalb der eigenen vier Wände trifft man ihn dann meist mit wehendem Haar im Fahrtwind, lächelnd sitzend in seinem alten Camaro - vielleicht mit einer Schokoladentafel im Handschuhfach.",
    "image": "/ArneEbner.webp"
  },
  {
    "name": "Aron Schüler",
    "description": "Aron hat die Schule schon länger hinter sich, ist dennoch unser erster Schüler in unserem Ambientcosmos. Eine Schultüte haben wir ihm zwar nicht geschenkt, dafür stürzt er sich mit seinem Hyperfokus für uns in Projekte und neue Themen hinein. Die ständig wechselnden Herausforderungen unserer Branche spornen ihn immer wieder an, neuen Input zu sammeln. Wichtig sind ihm besonders Gespräche mit anderen Kollegen und der Austausch im Team.\n\nAn freien Tagen ist Aron auch gerne mal analog unterwegs. Mit den Wanderschuhen an den Füßen läuft er durch Wälder, Täler und Gebirge, ganz im Einklang mit der Natur. Als Angler bringt Aron viel Geduld und Ruhe mit, wodurch er schon ein paar Fische an Land ziehen konnte. Um auch mal in Fahrt zu kommen, schwingt er sich auf sein Rennrad. Zuhause liest er viel oder trifft sich mit Freunden zum Gamingabend. Sein Traum: ein Häuschen mitten im Wald der skandinavischen Länder.",
    "image": "/AronSchüler.webp"
  },
  {
    "name": "Atef Toumi",
    "description": "Atef absolviert zurzeit sein Master-Studium in Aachen und weil er sich gerne selber herausfordert, war er auf Workwise auf der Suche nach einem netten neuen Team. Bisher hat er vor allem mit React und Javascript gearbeitet, hauptsächlich im Frontend. Weil er immer gerne neue Dinge lernt, wird er sich mit viel Spaß auf das Backend mit Django und Python konzentrieren.\n\nNach Feierabend trifft er sich gerne zum Essen oder geht mit Freunden einen trinken, oder er unterhält sich mit seiner Familie. Ansonsten lernt er natürlich für seine Klausuren. Sport macht er auch schon immer gern, er spielt schon von Kind an Tennis und Basketball und wenn er mal viel Zeit hat, spielt er Videospiele und am Wochenende wird ganz traditionell tunesisch gekocht. Er liebt die Abende wo man die lauen Sommernächte an der frischen Luft geniessen kann und freut sich auf seinen nächsten Traumurlaub mit dem Motorrad einen Roadtrip durch Südamerika zu starten.",
    "image": "/AtefToumi.webp"
  },
  {
    "name": "Bärbel Walendy",
    "description": "Durch ein Uni Projekt sammelte Bärbel erste Erfahrungen in der Webentwicklung und fand sofort großen Gefallen daran. Aktuell steht für die Wirtschaftsinformatikerin die Frontend-Entwicklung auf dem Programm. Bevor sie über das \"wie\" nachdenkt, sollte aus ihrer Sicht das \"warum\" geklärt sein. Sie nimmt jeden Weg und Umweg in Kauf, um des Pudels Kern näher zu kommen. Privat würde die Rheinländerin am liebsten die ganze Welt bereisen. Sie beendet keinen Urlaub, bevor nicht der nächste geplant ist. Ein Jahr lang reiste sie schon quer durch Neuseeland und war begeistert. Mitgenommen hat sie die Herzlichkeit sowie Hilfsbereitschaft der Neuseeländer und ein Herr-der-Ringe-Feeling. Was die Küche allerdings angeht, bleibt sie ihren Wurzeln treu. Kartoffeln zieht sie jederzeit Nudeln oder Reis vor. Mit ihren Freunden veranstaltet Bärbel am liebsten Spieleabende, egal ob Brettspiele oder Konsole. Dazu wird auf dem Sofa gelümmelt, gekocht und gequatscht bis zum Morgen.",
    "image": "/BärbelWalendy.webp"
  },
  {
    "name": "Bartosz Cupial",
    "description": "Bartosz Cupial ist als nächster Coup bei uns gelandet. Der gelernte Fachinformatiker für Systemintegration hat seine Begeisterung für Webentwicklung schon vor einigen Jahren entdeckt und seitdem in vielen Tagen sowie Nächten hinterm Monitor kontinuierlich ausgebaut. Trotz Bart ist Bartosz kein Breitbandbandit und verfolgt edle Absichten. Probleme sind dazu da, um sie auf bestmögliche Weise elegant zu lösen. Seine Superheldenkräfte setzt er auch gerne zu Hause am PC ein, um feindliche Superhelden auszutricksen. Draußen zieht es ihn in die Berge zum Snowboarden. Always on the wild side.",
    "image": "/BartoszCupial.webp"
  },
  {
    "name": "Benedikt Bauer",
    "description": "Ein Klick bei Benedikt kann zwei Dinge bedeuten. Entweder ein Klick auf seine Tastatur oder auf seine Kamera. Beides sind große Leidenschaften von Benedikt. Klar. Denn früher gehörte das Entwickeln ja schon einmal zum Fotografieren. Es kommt eben zusammen, was zusammen gehört. Benedikt fand den Weg zu uns auf der Suche nach einem Unternehmen, bei dem er seine Masterarbeit zum Thema Sicherheitsstandards schreiben konnte. Seitdem unterstützt er uns als Full-Stack Entwickler und Tech-Evangelist und mit tollen Teamfotos. Er ist der Gegensatz zu einer Dunkelkammer: Für alles zu haben und bereit, alles mindestens einmal auszuprobieren. Tüftelt er nicht gerade an den neuesten Shots herum, verbringt er zumindest den Sommer zum größten Teil auf dem Fahrrad. Nur zu seinem nächsten Reiseziel, der Westküste der USA, wäre es etwas zu weit.",
    "image": "/BenediktBauer.webp"
  },
  {
    "name": "Birkan Kolcu",
    "description": "Birkan ist einer unserer Cloud-Engineers, er berät und unterstützt unsere Teams hinsichtlich technischer Lösungen in der Cloud. Zudem entwickelt und standardisiert er unsere DevOps-Prozesse und schult unsere Teams bezüglich führender Technologien in dem Bereich.\n\nPrivat tüftelt er an Hard- und Software Projekten. Sein erstes Projekt, ein Roboter, der Steckdosen erkennen und zweidimensionale (2D) Karten eines Hauses erstellen konnte, hat es sogar beinahe geschafft, sich mit seinem Roboterarm in eine der Steckdosen einzustecken! Chapeau!\n\nAußerdem liebt er es, in der Natur zu entspannen und dabei Vögel zu beobachten.\n\nIm Urlaub fliegt Birkan am liebsten in sein Heimatland Türkei, wo er viel Zeit mit seiner Familie verbringt. Besonders freut er sich über die türkischen Raviolis mit Jogurt und Manti-Sauce.",
    "image": "/BirkanKolcu.webp"
  },
  {
    "name": "Christina Schlich",
    "description": "Man braucht immer jemanden, der den Überblick behält. Die gelernte Tanzpädagogin geht mit der Lupe zu Werke und kümmert sich um unsere Buchhaltung und den Einkauf. Weil sie verschiedene Jobs im Bereich TV und Events hat, weiß sie vieles besser als wir und kennt die kniffeligsten Details. Oder findet sie raus, gibt sie weiter und verewigt sie in Listen. Ihre geheime Büro-Vorliebe ist jedoch der Aufbau von Ikea-Möbeln, was sie mittlerweile fast im Schlaf kann.",
    "image": "/ChristinaSchlich.webp"
  },
  {
    "name": "Chris Teichmeister",
    "description": "Chris ist ein waschechter Europäer – geboren und aufgewachsen in Luxemburg (Stadt), mit österreichischen Eltern und umgeben von diversen Sprachen, die für ein Überleben in Luxemburg und Wien, wo der Rest seiner Familie wohnt, notwendig sind. Hieraus entwickelte sich auch seine Liebe zu Sprachen generell und eine Liebe zu Griechenland, besonders zu dessen Hauptstadt Athen. Studiert hat Chris Wirtschaftsinformatik an der Uni Köln und ist täglich davon begeistert, wie viele Möglichkeiten und Technologien es in der Webentwicklung gibt, um Vorgaben umzusetzen. Sein Herz schlägt seit seiner Kindheit für das Pfadfindertum – wer hierzu Fragen hat, wird bei Ihm die Antwort finden – von der Entstehung der Pfadfinderbewegung bis zu den diversen Knoten, die ein Pfadfinder beherrschen sollte. Seine zweite große Leidenschaft ist der Film – nicht nur anschauen, sondern auch selber drehen, editieren und sich nach stundenlanger Arbeit über das fertige Ergebnis freuen – ein tolles Gefühl! Zudem geht er gerne klettern, spielt Tennis und hört Musik von Bands wie Linkin Park, Billy Talent und Paramore, die sich seit Jahren auf seiner Playlist wiederfinden. Chris liebt es, seinen Alltag zu Planen und zu Strukturieren und sich an diese Pläne zu halten. Inzwischen gibt es in eben diesen sogar Pufferzonen für Unvorhergesehenes, wie spontane Einladungen seiner Freunde zum Fußball oder Billard. Chris sagt über sich selbst: „don't rub me the wrong way!“. Der Ursprung liegt in seiner Katzenbesitzervergangenheit – Katzen mögen es nicht, wenn man sie gegen den Strich streichelt und Chris hat diese Eigenschaft für sich adaptiert.",
    "image": "/ChrisTeichmeister.webp"
  },
  {
    "name": "Christoph Rücker",
    "description": "Als unser Social Media Manager ist Christoph auf sämtlichen Plattformen unterwegs. Mit verschiedenen Tools wie Adobe Photoshop oder Lightroom kreiert er Content für Postings sowie für unseren Blog. Durch Monitoring und das Auswerten der Kampagnen, filtert er die Bedürfnisse der Menschen, um zielgenaue Maßnahmen zu finden. So ist es Christoph möglich, einen Mehrwert für beide Seiten zu schaffen, was ihn immer sehr happy macht. Auch in seiner Freizeit beschäftigt er sich mit dem Wachstum. So bringt er allerlei Samen zum Keimen. Sein größter Erfolg ist eine Thai-Chili-Pflanze, die Christoph schon seit 3 Jahren großzieht. Zudem beschäftigt er sich leidenschaftlich gerne mit der analogen Fotografie oder düst auf seinem Skateboard mit Musik im Ohr durch die City.",
    "image": "/ChristophRücker.webp"
  },
  {
    "name": "Christoph Trappe",
    "description": "Aus dem Forschungsfeld \"Mensch-Maschine-Interaktion“ kommend, arbeitet der promovierte Wissenschaftler im Silicon Valley der Digitalisierungshochburg Köln an der Planung und Umsetzung von IT-Projekten. Sein Anliegen ist es, gebrauchstaugliche Software zu entwickeln, die dazu beiträgt, das Leben der Menschen nachhaltig zu verbessern. Mit einem offenen Ohr für den digitalen Puls der Zeit, experimentiert er in seiner Freizeit mit Synthesizern an elektronischen Soundscapes mit wenigen Einsen und ein paar Nullen.",
    "image": "/Default.webp"
  },
  {
    "name": "Clinton Mzee",
    "description": "Seine Wurzeln hat Clinton in Nairobi, Kenia. Dort aufgewachsen, hat er einen Großteil seines Lebens auf einer deutschen Auslandsschule verbracht und absolvierte dort sein Abitur, um schließlich in Deutschland zu studieren.\n\nClinton entschied sich für ein Studium der Energie- und Gebäudetechnik an der TH Köln in Deutz. Nun arbeitet Clinton mit seinem Team Potatogang im Bereich der Webentwicklung im Front-End. Mit seiner Expertise in JavaScript und seinem laufenden Lernprozess in React & TypeScript ist er bestens gerüstet, um innovative und ansprechende Webanwendungen zu entwickeln.\n\nWas Clinton an seiner Arbeit besonders begeistert, ist die Verbindung von Design und Programmierung. Es fasziniert ihn, wie er mit Hilfe von Design-Tools Websites gestalten und sie dann durch Programmierung weiterentwickeln kann. Er ist ein neugieriger Geist, der gerne experimentiert und neue Wege erkundet, um kreative Lösungen zu finden.\n\nIn seiner Freizeit hat Clinton eine Leidenschaft für Basketball. Obwohl er derzeit nicht in einem Verein spielt, nutzt er jede Gelegenheit, auf dem Freiplatz seinem Hobby nachzugehen. Kürzlich hat er sich neue Inline-Skates besorgt und freut sich darauf, sie diesen Sommer auszuprobieren. Neben Basketball spielt Clinton auch gerne Tischtennis, geht bouldern oder erkundet schöne Orte mit seinem Longboard. Dabei genießt er die Bewegung und die Natur um sich herum und findet darin Ausgleich und Entspannung.\n\nWenn es um seinen perfekten Feierabend geht, schätzt Clinton die Zeit mit Freunden. Als Student hat er oft nicht viel Freizeit, aber wenn er sie hat, trifft er sich gerne mit seinen Freunden an einem Tischtennis- oder Basketballplatz. Vor allem im Sommer wird dann gegrillt und der ein oder andere Kasten Bier mitgebracht, um den Feierabend gebührend zu feiern.",
    "image": "/ClintonMzee.webp"
  },
  {
    "name": "Cornelius Laurenz",
    "description": "Ursprünglich kommt Cornelius aus dem idyllischen Münsterland, doch für seine Ausbildung hat er den Schritt in die Stadt Münster gewagt. Später zog er dann in eine noch größere Stadt, nach Düsseldorf, um dort sein Studium zu beginnen. Auch das Ausland hat Cornelius angezogen und so hat er ein spannendes Auslandsemester in Fukoshima, Japan verbracht. Schließlich ist er nun in Köln gelandet, wo er seinen Berufseinstieg startet und seine Lebensqualität steigern möchte. Bei uns ist Cornelius in der Frontendentwicklung tätig und strebt papallel seinen Abschluss in Medieninformatik an.\n\nWas ihn besonders an seiner Arbeit begeistert, ist die Vielfalt der Anwendungmöglichkeiten in der Web- und Appentwicklung. Neben seinem beruflichen Werdegang, gibt es einige Eigenschaften die Cornelius ausmachen. So fährt er z.B. überall mit dem Fahrrad hin, eine Gewohnheit, die er aus seiner Zeit in der Fahrradstadt Münster mitgenommen hat. Zudem ist Cornelius ein Musikliebhaber und hört gerne alte Rockmusik sowie elektronische Klänge. Eine kleine Schwäche hat er allerdings, er kann es nicht lassen die teuersten Gerichte auf der Speisekarte anzustarren, was seinem Geldbeutel nicht immer gut tut ;) In seinem perfekten Feierabend genießt er es, essen zu gehen, zu grillen oder selbst zu kochen. Seit seinem Auslandssemester ist Cornelius ein großer Fan japanischer Ramen. Er entspannt sich gerne am See oder am Rhein. Entweder mit seiner Angel oder einfach nur in gemütlicher Athmosphäre. Außerdem liebt er es mit Freunden durch die Viertel zu ziehen und die kleinen Geheinmisse der Stadt zu erkunden.",
    "image": "/CorneliusLaurenz.webp"
  },
  {
    "name": "Daniel Hounsou",
    "description": "Mit seinen Fähigkeiten im UX/UI Design und in der nutzerzentrierten Gestaltung verstärkt Daniel unser Color Squad. Als Kommunikationsdesigner begeistert es ihn, Software für Menschen optisch so zu gestalten, dass sie einfach und performant nutzbar ist. Wenn sie dann auch noch Freude bereitet, gönnt Daniel sich ein Stück Schokolade und lehnt sich entspannt zurück.\n\nUm nach der Arbeit zu entspannen, backt sich Daniel im Winter eine leckere Pizza mit Kürbis, Feta, Oliven, süßem Senf und Walnüssen, schmeißt sich in die Jogginghose und danach auf die Couch für eine spannende Serie. Im Sommer nutzt er die warmen Abende für Treffen mit seinen Freunden. Obwohl er ein großer Big Lebowski-Fan ist, sucht man ihn beim Bowling vergebens. Dafür kann man ihn beim Fußball, Tennis oder Tischtennis herausfordern, damit er dann mit präzisem Augenmaß die Bälle über und in die Netze pfeffern kann.",
    "image": "/DanielHounsou.webp"
  },
  {
    "name": "Daniel Niegel",
    "description": "Seinen Lebensmittelpunkt hat der gebürtige Stuttgarter Daniel seit Ende 2014 in Köln und unterstützt uns tatkräftig in der Front- und Backendentwicklung. Durch sein Physikstudium in Heidelberg geschult, liegen seine Stärken im analytischen Denken und der Fähigkeit, sich auch in komplizierte Sachverhalte schnell „einfuchsen“ zu können. Gönnt er sich nach Feierabend eine Pause, findet man ihn entweder auf der Couch, beim Sport oder beim Musik schreiben und spielen. Seine neue Heimat gefällt ihm ausgesprochen gut, auch wenn ihn ab und zu der Heißhunger auf Maultaschen und Wurstsalat überkommt.",
    "image": "/Dan.webp"
  },
  {
    "name": "Darius Dreiner",
    "description": "Darius kommt aus der lebhaften und bunten Stadt Köln, wo das Kölsch in Strömen fließt und das Lachen niemals endet. Er startete als Kfz-Mechatroniker und entschied sich dann, seiner Werkzeugkiste einen Master in Information Systems hinzuzufügen. Darius wird bei uns seine Talente im Backend einbringen und dabei die Kunst des Codens mit Python und Django beherrschen. Doch seine Arbeit ist für ihn nicht nur eine Pflicht, sondern eine wahre Leidenschaft. Was ihn besonders begeistert, ist die Möglichkeit, beim Coden Rätsel zu lösen und den \"Flow State\" zu erleben, wenn er tief in seiner Arbeit versinkt. Aber Darius ist nicht nur ein Einzelkämpfer; er schätzt auch den Austausch mit anderen und glaubt fest daran, dass Lernen am meisten Spaß macht, wenn man es gemeinsam tut. Er selbst gesteht jedoch, dass sein Kurzzeitgedächtnis nicht immer auf seiner Seite ist, besonders jetzt, da er die 30 erreicht hat ;)\n\nWenn er nicht gerade Coding-Abenteuer besteht , trifft er sich mit Freunden zu einer Wanderung durch die Natur, einer Partie Badminton oder einfach alles zusammen. Darius genießt die Gesellschaft anderer und hört gerne Musik. Ab und an, wenn die Zeit es zulässt, holt er sein Mischpult raus und bastelt sich aus Lieblingssongs passende Sets zusammen. Dazu schwingt er auch gerne mal das Tanzbein :D",
    "image": "/DariusDreiner.webp"
  },
  {
    "name": "David Bajon",
    "description": "David Bajon ist für sein junges Alter ein knallharter Profi und herzlich willkommen in unserer Gang. Er hat so früh wie möglich angefangen eigene Projekte zu entwickeln und sich ehrenamtlich in der Gamingszene zu engagieren, was immer das beste Zeugnis für wahre Leidenschaft ist. Kein Auftrag ist für ihn unmöglich. Nicht nur beim Gaming bringt er regelmäßig die Diamanten nach Hause. Angetrieben von seiner Liebe zur Webentwicklung, unterstützt er uns mit seinen Fähigkeiten dabei, unsere Projekte umzusetzen. Er agiert am liebsten undercover, um in aller Stille seine genialen Pläne auszutüfteln. Die besten Gespräche führt man mit ihm bei nächtlichen Besuchen von dunklen Bars. Und das obwohl er keinen Kaffee trinkt.",
    "image": "/DavidBajon.webp"
  },
  {
    "name": "Denis Anuschewski",
    "description": "Fasziniert von Sprachen und digitaler Wissensverarbeitung, hat Denis ein Masterstudium der Informationswissenschaften, Sprachtechnologie und Medieninformatik abgeschlossen. Zum Glück für uns, setzt er seine analytischen Fähigkeiten nun bei uns in der Web-Entwicklung im Team Los Django Hermanos ein. Man könnte glauben, er hat noch einen heimlichen Zwilling, denn in seiner freien Zeit verbringt er viel Zeit mit seinen Kindern, lernt Sprachen und spielt Basketball. Wir vermuten ja, er holt sich die Energie aus den pikant-scharfen Gerichten, die er sich und seiner Familie zaubert. Sein liebstes Zitat: “Whenever you find yourself on the side of the majority, it is time to pause and reflect.” - Mark Twain",
    "image": "/DennisAnuschewski.webp"
  },
  {
    "name": "Dennis Gilliam",
    "description": "Mit Weitblick für die größte Herausforderung unserer Zeit, die Digitalisierung, gründete Dennis 2010 Ambient Innovation. Sein Ziel: Unternehmen mit Hilfe individueller Software bei der digitalen Transformation zu unterstützen. Unter seiner Leitung hat sich Ambient zum innovativen Partner für Unternehmen, Agenturen und Start-Ups in allen Fragen der Konzeption und Umsetzung entwickelt. Immer mit dem Blick für die neuesten technologischen Möglichkeiten leitet der diplomierte Wirtschaftsinformatiker Projekte und programmiert, wenn es die Zeit zulässt, gerne noch selber. Seitdem sich die Mitarbeiteranzahl von Ambient seit 2012 verfünffacht hat, konzentriert sich der im Jahrgang 84 geborene Aachener vermehrt um Strategieentwicklung, Finanzen und Organisation. Für langjährige Kunden und alle Mitarbeiter ist er jedoch nach wie vor zentraler Ansprechpartner. Düst er abends auf seinem Rennrad nach Hause, hat man eine gute Chance den ehemaligen Handball-Drittliga-Spieler im Wald beim Joggen anzutreffen. In Toplaune.",
    "image": "/DennisGilliam.webp"
  },
  {
    "name": "Dennis Peker",
    "description": "Nachdem Dennis sein Studium zum M.A. Informationsverarbeitung erfolgreich absolviert hatte, startete er seine nächste Reise und ist geradewegs in unserem Ambient-Kosmos gelandet. Angekommen im Team April's Fools, sorgt Dennis als Python-Entwickler für reibungslose Abläufe im Backend. Er teilt die Werte seines Teams zu 100 % - Clean Code und offene Kommunikation. Mit seinem lustigen Humor und schlechten Wortspielen bringt er uns häufig zum Lachen und schafft eine lockere und amüsante Atmosphäre. Seine Liebe zu Donuts teilt er natürlich gerne mit uns, wir bekommen die Mitte :D Privat taucht er mit seinen Freunden regelmäßig in spannende Geschichten von kooperativen Brettspielen ein. Dort gilt: je komplexer, desto besser! Um einen kühlen Kopf zu behalten, geht er regelmäßig in die Therme oder relaxed auf der Couch mit einem Tee und einer guten Serie.",
    "image": "/DennisPeker.webp"
  },
  {
    "name": "Edward Lecock",
    "description": "Von wegen, die spinnen die Belgier! Edward reizt an der Softwareentwicklung vor allem der logische Grundcharakter und die ständige Flexibilität. Der gelernte Fachinformatiker kommt ursprünglich aus Belgien und ist erst seit fünf Jahren in Deutschland, was man nicht wüsste, wenn man es hier nicht läse. Edward spricht fließend Flämisch, Niederländisch, Deutsch, Englisch und Französisch. Daneben spricht er noch agil, saxophonisch und diverse Programmiersprachen für das Frontend und Backend. Als Belgier vermisst er in Deutschland alles typisch Belgische. Die Liebe zu Gerstensaft - La chouffe! - und die Armada an Frittenbuden. Aber zum Glück ist ja Maria Eet Cafe nicht weit von unserem Office entfernt. Und Edward, spontan wie er ist, immer für einen Besuch zu haben.",
    "image": "/EdwardLecock.webp"
  },
  {
    "name": "Eda Han",
    "description": "Lorem sketchum! Eda hat die Kunst schon als Kind fasziniert. Seither zeichnet und malt sie sich durch das Leben. Heute ist sie Mediendesignerin und es ist ihr besonders wichtig, dass sie mit Ihrer Arbeit als UX/UI-Designerin nicht nur Trends folgt oder Pixel schön anordnet, sondern digitale Produkte konzipiert, die Menschen eine Erleichterung bieten. Nutzerorientiertes Design wird bei ihr groß geschrieben. Das perfekte digitale Produkt hat ein einzigartiges Design, welches die wichtigen Inhalte des Produktes leicht verständlich und intuitiv bedienbar macht. Sie schätzt die Kraft des Feedbacks, um aus ihren Ideen Wettbewerbsvorteile für unsere Kunden zu generieren. Der Mensch steht für sie im Mittelpunkt. Auch privat. Eda ist sehr gerne für andere da, hilft und hat immer ein offenes Ohr. Für ihre Freunde schlüpft sie schon mal in die Rolle der Hobbypsychologin, mit Kaffee und Schokolade, versteht sich! Mit tollen Gesprächen, viel Humor und Optimismus, versüßt sie anderen das Leben.",
    "image": "/EdaHan.webp"
  },
  {
    "name": "Elian Stolz",
    "description": "Elian hat als Werkstudent bei uns angefangen, arbeitet mittlerweile als Softwareentwickler und perfektioniert mit seiner \"Gang\" unser internes Portal. Er haut nicht nur liebend gerne Codes in die Tasten, sondern auch seinen Boxsack. Denn Elian ist großer Sportfan. Mit seinem Kraft- und Konditionstraining hält er sich fit. Auch mit seinen Freunden ist er gerne sportlich unterwegs. Es wird sich zum Bouldern verabredet oder eine Ballsportart gespielt. Zum Entspannen steckt Elian seine Nase in spannende Horror oder Fantasygeschichten oder spielt mit den Hunden und der Katze seiner Eltern.",
    "image": "/ElianStolz.webp"
  },
  {
    "name": "Elvira Grünwald",
    "description": "Aus Altena (irgendwo im Sauerland) für ihren ersten Arbeitstag angereist, hat Elvira direkt eine amüsante Debatte beim gemeinsamen Mittagessen unter ihren Kolleg:innen gestartet, welcher Ort denn nun wirklich gemeint sei und sich damit direkt bestens integriert und den Ambient-Humor zu schmecken bekommen. Und nicht nur in Erdkunde, sondern auch in der Informatik lernt man jeden Tag etwas dazu. Es gibt keinen Stillstand und die Einsatzmöglichkeiten sind unbegrenzt.\n\nMit dieser philosophischen Einstellung ist die studierte Anwendungsentwicklerin zu uns gestoßen und unterstützt ihr Team tagtäglich voller Tatendrang mit ihren Frontendfähigkeiten, um nachhaltig robuste, performante und benutzerfreundliche Anwendungen zu schaffen.\n\nElvira hat neben der Informatik viele weitere Interessen wie Medizin, Kunst und Physik. Das Wissen aus diesen verschiedenen Bereichen verbindet sie dabei gerne, um neue Lösungsansätze und Ideen zu entwickeln, sowohl für die Arbeit als auch für Privates. So würde sie beispielsweise gerne durch technische Unterstützung eine nachhaltigere und positivere Denkweise vieler Menschen fördern, ein Thema, dass ihr sehr am Herzen liegt.\n\nEtwas kleiner gedacht, hat sie auf jeden Fall großes Potenzial verschiedene Charaktere in ihrem Team und außerhalb in Einklang und Harmonie zu bringen, denn bei ihr Zuhause wohnen sowohl Katzen als auch Hunde friedlich unter einem Dach.\n\nIn ihrer Freizeit verbringt sie gerne viel Zeit mit ihren Hunden, auch aktiv im Verein, zeichnet etwas oder entspannt auf dem Sofa bei einer guten Serie. Im Urlaub findet man sie mit Freunden am Meer entspannend, tagsüber im Wasser und am Abend gemütlich am Lagerfeuer.",
    "image": "/ElviraGrünwald.webp"
  },
  {
    "name": "Enrico Tröger",
    "description": "Der gebürtige Thüringer Enrico lebt seit elf Jahren im schönen Köln und hat in Ehrenfeld über viele Wege sein Zuhause gefunden. Durch seine Begeisterung, die IT-Welt immer wieder neu entdecken zu können, ist aus Leidenschaft Berufung geworden. Der Softwareentwickler hat ein Ziel: Im Team das Beste zu erreichen. In seiner Freizeit geht Enrico gerne mit Freunden auf Punk- und Ska-Konzerte und hier gilt, je mehr außergewöhnliche Instrumente und Wumms desto besser. Auch das Wetter genießt er mit Sturm und Regen und das sogar im Urlaub. Ein waschechter Kerl eben.",
    "image": "/Default.webp"
  },
  {
    "name": "Fabia Gradwohl",
    "description": "Als IT Consultant sieht Fabia die Perspektive unserer Kund*innen, entwickelt ihre Produktvision und analysiert ihre Anforderungen. Das ist eine ziemlich komplexe Geschichte und ein aufwendiger Rechenvorgang für unsere menscheninterne Software (kurz Gehirn). Bei jeder neuen Erfahrung, werden in unserem Gehirn neue neurale Verbindungen hergestellt, die helfen, immer besser zu werden.\n\nCoolerweise hat uns Fabia ihren Livehack gekickt, wie sie nebenbei im Alltag neue Synapsen züchtet. Durch Balancetraining: auf dem Einrad, beim Surfen und beim Yoga in der Position des Baumes oder der Krähe. Zum Anfang reicht es übrigens auch auf einem Besenstiel zu balancieren. Pausen sind natürlich genauso wichtig wie Deadlines und in diesen entspannt sie beim Joggen, Kind knuddeln oder Kochen. Wobei der Nachtisch nie fehlen darf. Am liebsten Salty-Caramell-Eiscreme.",
    "image": "/FabiaGradwohl.webp"
  },
  {
    "name": "Federico Salerno",
    "description": "Federico kommt aus dem größten Vulkan Europas. Na gut, nicht direkt daraus, aber er konnte den Ätna jeden Tag von seinem Fenster aus bestaunen. Kein Wunder, dass der Sizilianer bei dem Gedanken in Erinnerungen schwelgt. Da ist die Freude jedes Jahr groß, wenn er in seine Heimat reist. Vor allem erwarten ihn dort seine Familie, seine drei Katzen Dave, Eevee und John Silver und die köstliche sizilianische Küche.\nZurück in seiner zweiten Heimat Dortmund, schreibt Federico für uns klaren Code im Front- und Backend. Ob Python oder TypeScript, Federico begeistert sich für sämtliche Programmiersprachen, drum lässt er auch keine Gelegenheit aus, um sein Knowhow zu erweitern und zu vertiefen. Zudem lernt er mehrere Sprachen ferner Länder, wie beispielsweise japanisch und chinesisch, suteki ;) Um auch andere Menschen beim Lernen neuer Sprachen zu unterstützen, nutzt Federico seinen selbst programmierten Discord Bot. Kommunikation ist eben das A und O und beherzigt zusätzlich unsere Unternehmenskultur.",
    "image": "/FedericoSalerno.webp"
  },
  {
    "name": "Felix Gillen",
    "description": "Felix ist bis in die Haarwurzeln überzeugter \"Agilist\". Als zertifizierter Scrum Master begleitet er drei unserer Teams und unterstützt Ambient Innovation, wie auch verschiedene Kunden in ihrer agilen Transformation. Felix hat Wirtschaftsinformatik an der Uni Köln studiert und 2009 mit „COUPIES“ eines der ersten App-Start-Ups in Köln mit gegründet. Glücklicherweise hat ihn im August 2015 die Lust gepackt, Anwendungen für andere Unternehmen zu entwickeln und ist seitdem ein Teil von Ambient. Felix hat absolut keine Ahnung von Fußball und läuft beim After-Work-Talk mit Kollegen regelmäßig in die Abseits-Falle. Im Blitztempo dagegen lernt er, was ihn wirklich interessiert. Aktuell beschäftigt er sich am Liebsten mit Themen rund um Cloud-Technologien und Agilität.",
    "image": "/FelixGillen.webp"
  },
  {
    "name": "Felix Prahl",
    "description": "Als gebürtiger Bonner trägt Felix die Herzlichkeit der Rheinländer in sich, und auch wenn ihn seine Wege schon nach Berlin und Spanien geführt haben, ist er doch wieder in seiner Heimat Bonn zuhause. Back to the roots!\n\nDort hat er an der Friedrich-Wilhelms-Universität seinen Bachelor of Science Informatik gemacht und programmiert heute erstklassigen Code im Backend. Bei Bedarf springt er auch gerne im Frontend ein. Ausdauernd und zielorientiert löst Felix sämtliche Probleme, bis das Ergebnis perfekt ist. Die Möglichkeiten durch guten Code das Leben zu vereinfachen, geben ihm immer wieder neuen Rückenwind. Auch privat bastelt und programmiert er Apps, Websites oder kleinere Spiele. Seine Freunde fordert Felix regelmäßig zu einer Partie Uno, Mensch ärgere dich nicht oder Phase 10 heraus. Bei schönem Wetter verbringt er seine Zeit am liebsten draußen am Werbellinsee oder im Biergarten. Ab und an genügt Felix auch ein gemütlicher Abend auf seiner Couch mit der Lieblingsserie im TV.",
    "image": "/FelixPrahl.webp"
  },
  {
    "name": "Felix Schul",
    "description": "Felix ist bis in die Haarwurzeln überzeugter 'Agilist'. Als zertifizierter Scrum Master begleitet er drei unserer Teams und unterstützt Ambient Innovation, wie auch verschiedene Kunden in ihrer agilen Transformation. Felix hat Wirtschaftsinformatik an der Uni Köln studiert und 2009 mit „COUPIES“ eines der ersten App-Start-Ups in Köln mit gegründet. Glücklicherweise hat ihn im August 2015 die Lust gepackt, Anwendungen für andere Unternehmen zu entwickeln und ist seitdem ein Teil von Ambient. Felix hat absolut keine Ahnung von Fußball und läuft beim After-Work-Talk mit Kollegen regelmäßig in die Abseits-Falle. Im Blitztempo dagegen lernt er, was ihn wirklich interessiert. Aktuell beschäftigt er sich am Liebsten mit Themen rund um Cloud-Technologien und Agilität.",
    "image": "/FelixSchul.webp"
  },
  {
    "name": "Holger Schauf",
    "description": "Als Holger sich damals auf die Stelle des Mediendesigner bewarb ahnte er noch nicht, dass dabei verborgene Talente im Frontend zum Vorschein kommen würden. Mit seinen umfangreichen Kenntnissen in HTML, CSS und Javascript entwickelt Holger nun optimierte Darstellungen. Das Spannende für ihn daran: die Schnittstellen von Design und Technik ideal zusammen zu führen. Eine weitere große Leidenschaft des Kölners ist ganz klar die Musik. Ob House, Techno oder Jazz, es wird alles gehört was so richtig groovt. Auf Partys und Raves lässt er als DJ die Menge so richtig grooven. Ein weiterer Beat, der sein Herz höher schlagen lässt, ist das rhythmische Ticken seines Handballs in einem schnellen Dribbling. Der Sport hat ihn geprägt - kaum verwunderlich also, dass sein Teamplayergen fest in der Matrix verankert ist. Einmal im Jahr segelt er ganz traditionell mit seiner Familie über das Ijsselmeer. Und wenn der Kölsche Jeck mal daheim ist, genießt er mit seinen Freunden ein kühles Blondes. Denn Kölsch is the only Language you can drink.",
    "image": "/HolgerSchauf.webp"
  },
  {
    "name": "Holger Piechulla",
    "description": "Holger verstärkt unsere Aachen-Crew und hat dort erfolgreich den dualen Bachelor-Studiengang \"Scientific Programming\" in Kombination mit der Ausbildung zum mathematisch-technischen Softwareentwickler abgeschlossen. Er hat seine Bachelorarbeit mit Django umgesetzt und sich dann auf die Suche nach passenden Arbeitgebern begeben. Glücklicherweise hat er seinen Hut bei uns in den Ring geworfen. Angefangen mit Python und Django, stellt er uns heute vor allen Dingen eine innovative Infrastruktur zur Verfügung: für einen effizienten Entwicklungsprozess. Menschlich verstärkt er das Team mit Humor auf hohem Niveau. Selbst beim Monday-Morning-Meeting. In Urlaubszeiten zieht es ihn in Städte mit historischer Geschichte. Besonders in Prag schlendert er gerne durch die engen Gassen der Altstadt, bis sein Teint unverschämt sommerlich ist. Ein wenig Nervenkitzel muss sein: Zuhause zockt er Videospiele oder taucht in Fantasy-Welten ein. Harry Potter und Herr der Ringe sind seine absoluten Favoriten. Für den Realitätscheck liest er sich in sämtliche Hintergründe ein. Seine Freunde wenden sich an ihn als Problemlöser. Denn es gibt immer einen Weg oder eine Tür, die sich öffnen lässt, Alohomora!",
    "image": "/HolgerPiechulla.webp"
  },
  {
    "name": "Ibrahim Taalouou",
    "description": "Ibrahim kam zu Ambient, um mit uns die androide Welt zu retten. Seine Passion für die native App-Entwicklung mit Android und der Entwicklung von Applikationen mit Ionic, AngularJS, React oder Node.JS hat zahlreichen Projekten zum Erfolg verholfen. Gleichzeitig ist er auch ein Experte für die Erstellung von relationalen Datenbanken und damit bei uns goldrichtig. Mittlerweile beherrscht Ibrahim ein weites Feld von App- und Webtechnologien. Ibrahim hat an der Universität Albaath (Homs / Syrien) Informatics Engineering studiert und dort bereits während seines Studiums vielfältige Projekte, u.a. für die Syrian Airline, entwickelt. In seiner Freizeit sucht er das Kontrastprogramm und geht wandern, fotografiert oder malt. Da er für die Liebe nach Thüringen gezogen ist, findet er dort auch die perfekte Kulisse für seine Hobbies. Sollte das Wetter dazu einladen zu Hause zu bleiben, steckt er seine Nase in Bücher, um uns dann mit beiläufig fallen gelassenen Zitaten von Karl Marx zu imponieren: 'Die Philosophen haben die Welt nur verschieden interpretiert, es kommt aber darauf an, sie zu verändern.'",
    "image": "/IbrahimTaaloulou.webp"
  },
  {
    "name": "Jakob Bolenbach",
    "description": "Als riesiger Sportfan sorgt Jakob dafür, dass kein Tag ohne körperliche Aktivität vergeht und sei es nur eine Joggingrunde mit seiner treuen Rottweiler-Hündin Luna. Jakobs Hingabe erstreckt sich auch auf seine Hobbys vom Klettern bis zum Snowboarden. Abenteuerlustig soll es sein!\n\nWenn Jakob in fremden Ländern unterwegs ist, ist ihm das Kennenlernen der Kulturen sehr wichtig. Das kann er am besten, mit seinem ausgeprägten Geschmackssinn. Für Jakob sind die traditionellen Speisen das Schlüsselmerkmal jeder Kultur und zudem noch lecker!\n\nIn seiner Freizeit genießt Jakob den perfekten Abend am liebsten bei einem Fußballspiel der Bayern mit einem kühlen Bier in der einen Hand und eine Brezn in der anderen. Über die Faszination des Sports hinaus, taucht Jakob in die Welt der Finanzen ein, bewegt sich mühelos von einfacher Buchführung bis hin zu komplexen Analysen für potenzielle Investitionen. Seine größte Leidenschaft ist hierbei der Bitcoin, dessen Möglichkeiten ihn schon seit fast acht Jahren fesseln.\n\nZurzeit steckt Jakob in der Abschlussphase seines Informatikstudiums und ist als Werkstudent im Team Evil Beards tätig, wo er sich der Entwicklung interaktiver Webapps und der Erweiterung bestehender Anwendungen widmet.",
    "image": "/JakobBolenbach.webp"
  },
  {
    "name": "Jane Corleis",
    "description": "Als echte Hamburgerin beginnt sie einen Arbeitstag mit 'Moin' - wohlgemerkt einmal Moin und nicht Moin Moin. Janes Ziel sind glückliche User im Web und nur ein gut konzipiertes Produkt kann Benutzerfreundlichkeit und ein passendes Design vereinen. Jane ist Medieninformatikerin und unterstützt uns in Sachen User Experience detailverliebt in unseren Projekten. Durch ihr großes Talent, reibungslose Abläufe und Prozesse zu gestalten, zuverlässig, reaktionsschnell und mit hoher Transparenz zu arbeiten und kommunikativ neue Standards zu setzen, freuen wir uns ausserdem sehr, dass wir Jane als Ambient Scrum-Masterin in unsere agilen Reihen aufnehmen durften. Wenn sie nicht bei uns anzutreffen ist, trifft man sie auf Hardcore- oder Metalkonzerten. Zuhause findet man Jane oft beim Kochen und Backen. Auch uns hat sie mit ihren leckeren Kuchen und Torten den Alltag das ein oder andere Mal schon versüßt. Beim Gärtnern kann sie voll zur Ruhe kommen, auch Ihre Katze hilft manchmal beim Umgraben mit :) Creativity meets Technology!",
    "image": "/JaneCorleis.webp"
  },
  {
    "name": "Jannik Wagner",
    "description": "Jannik hat schon oft seinen Koffer gepackt und das nicht nur, um in den Urlaub zu verreisen. Er hat schon zeitweise in Prag gelebt, wo er ein Auslandssemester für seinen Bachelor in Informatik gemacht hat. Nachdem er seinen Master in Stockholm abgeschlossen hat, arbeitet er bei uns hauptsächlich mit Django im Backend. Er legt großen Wert auf einen verständlichen Code, ein freundliches Miteinander und Hilfsbereitschaft.\n\nWenn Jannik sich vom Bildschirm gelöst hat, nutzt er seine Zeit gerne um Sport zu machen, z.B. geht er Laufen oder Schlittschuh fahren. Zuhause powert er sich mit einem intensiven Homeworkout oder Acro-Yoga aus. Seinen Bauch füllt Jannik anschließend am liebsten mit einer ausgewogenen gesunden Mahlzeit, dafür probiert er zurzeit vegane Kochrezepte aus. Wenn Jannik die Füße hochlegt, dann mit einem guten Buch in der Hand oder er hört sich einen Podcast an.",
    "image": "/JannikWagner.webp"
  },
  {
    "name": "Jens Christiansen",
    "description": "Nachdem Jens seinen Master in Technischer Informatik absolviert hat, hat er einige Jahre in der Webentwicklung gearbeitet. Zu uns gestoßen ist Jens, weil er auf der Suche nach neuen spannenden Aufgaben war. An seiner Arbeit im Team Evil Beard begeistert ihn die Herausforderung, elegante Lösungen für schwierige Probleme zu finden. Er findet es toll, dass man aus Gedankenkonstrukten eine Architektur entstehen lassen kann, deren Entwicklung man die ganze Zeit begleiten kann.\n\nZurzeit liegt sein Fokus auf der Frontendentwicklung mit React, in naher Zukunft möchte er im Backend Erfahrungen sammeln.\n\nDen Tag lässt er gern mit netten Menschen, guter Musik und einem gepflegten Kölsch ausklingen und das am liebsten am Rhein, da er als Norddeutscher manchmal das Meer vermisst.\n\nIn seiner Freizeit spielt er gerne Gitarre oder macht ein Fahrradtürchen.\n\nNachdem er jetzt schon neun Jahre in Köln lebt, wie soll es anders sein, ist der FC Kölle natürlich sein Lieblingsverein.",
    "image": "/JensChristiansen.webp"
  },
  {
    "name": "Joel Strerath",
    "description": "Als Joel seine Ausbildung zum Versicherungskaufmann in der Tasche hatte, sehnte er sich nach mehr Vielfalt, Moderne und Spannung. In Eigenregie startete er in die digitale Welt und studiert heute Wirtschaftsinformatik. Im Team All You Need verstärkt er uns mit der Koordination und Umsetzung von Softwareprojekten. Im Office sorgt Joel für frischen Wind und setzt bunte Akzente dank ständig wechselnder Haarfarben. Seine Freizeit gestaltet er am liebsten aus dem Impuls heraus und ist am glücklichsten, wenn alles spontan passiert. Pünktlich zum Feierabend, trifft er sich zu Spiele- und Quizabenden mit Freunden oder bummelt durch die Kölner City. Immer mit dabei: seine Hündin Layla.",
    "image": "/Joel.webp"
  },
  {
    "name": "Jonas Jankus",
    "description": "Jonas ist unser All-Rounder für sämtliche Themen rund um den Menschen, wie Onboarding, Betreuung oder Weiterbildung. Zusammen mit seinem Powerteam TNT, kreiert Jonas den perfekten Arbeitsplatz und findet die Menschen, die zu uns passen.\nZu Hause schwingt er des Öfteren den Kochlöffel und zaubert französische Omelettes oder köstliche Fonds.\nGanz im Fokus der Sinne, liebt Jonas ebenfalls die Musik. Ob Klassisch oder Rap, gehört wird was gefällt. Zudem trifft sich Jonas regelmäßig mit seinen Freunden zum achtsamen Hören.\nJonas Wortwitze erzeugen oft ein Augenrollen bei seinen Freunden und Kollegen, daraus schöpft Jonas aber einfach nur weitere Energie, die er dann für außergewöhnliche Anzeigentexte nutzt.\nBeim Scrabble mit seiner Frau und beim Zocken von Computerspielen kann er so richtig abschalten und den Flow genießen.\nWenn es ihn im Sommer in seine Heimat Litauen zieht, findet man ihn beim Angeln oder beim Kanu fahren.",
    "image": "/JonasJankus.webp"
  },
  {
    "name": "Jonas Neunzig",
    "description": "Jonas ist eine Elementarkonstante von Ambient und bereits seit 2012, nach seinem Studium der Wirtschaftsinformatik, ein unverzichtbares Teammitglied. Er war nicht nur jung und brauchte das Geld. Seine Leidenschaft war und ist die Webentwicklung. Diese kombiniert er heute mit seiner Passion zur Optimierung agiler Prozesse. Als zertifizierter SCRUM-Master und erfahrener Software-Entwickler begleitet er unsere Kunden bei der agilen Anforderungsanalyse, über die Entwicklung bis hin zur erfolgreichen Implementierung der Software. Jonas' Glas ist durchgehend mehr halb voll als halb leer und er ist bekannt für seine flachen Wortspiele. Er ist Mentor für neue Mitarbeiter*innen und Scrum-Master des Circles 'No Sorgas', der vor allem dank seiner Antriebsenergie, heute eine der Säulen unserer Unternehmenskultur ist. Wenn er nicht gerade seine SCRUM-Teams betreut, Kunden berät oder neue Ideen entwickelt, wie sich Arbeiten nachhaltig und effektiv verbessern lässt, packt er seinen Rucksack und lässt sich rund um den Globus treiben. Auszeiten in Köln nimmt er sich beim Sport, bei seinem Engagement als Badminton-Trainer für Nachwuchstalente und beim Trainieren des besten Spikeball-Aufschlags.",
    "image": "/JonasNeunzig.webp"
  },
  {
    "name": "Julia Heydecke",
    "description": "Julia ist Berlinerin, die ihre Wurzeln fest in dieser pulsierenden Stadt hat, aber auch schon einige Jahre in Augsburg und Solingen verbracht hat. Doch am Ende führt ihr Herz sie immer wieder zurück in die Metropole an der Spree.\n\nIhren beruflichen Weg begann sie mit einer Ausbildung als Fachinformatikerin für Anwendungsentwicklung, und derzeit absolviert sie nebenberuflich das 5. Semester in Medieninformatik.\n\nIn unserem Team wird Julia als Backendentwicklerin tätig sein. An ihrer Arbeit begeistert sie die Möglichkeit, kontinuierlich Neues zu lernen und herauszufinden, wie die Dinge funktionieren.\n\nEine ihrer liebenswerten Eigenschaften ist ihre Hartnäckigkeit, Dinge zu Ende zu bringen, ganz gleich, um was es sich handelt. Sogar eine wirklich schlechte Netflix-Serie wird bis zum letzten Abspann geschaut, wenn sie einmal angefangen hat.\n\nIhren perfekten Feierabend genießt sie mit einem Glas köstlichen Baileys Salted Caramel, in Gesellschaft ihres Mannes und ihrer beiden Hunde.\n\nEin Hobby, das Julia mit großer Leidenschaft ausübt, ist das Zocken. Am liebsten spielt sie im Multiplayer-Modus zusammen mit ihren Clan-Mitgliedern, mit denen sie bereits ein ganzes Jahrzehnt gemeinsam zockt. Und natürlich hegt und pflegt sie ihren kleinen Schrebergarten, so wie es sich für eine waschechte Berlinerin gehört :)",
    "image": "/JuliaHeydecke.webp"
  },
  {
    "name": "Julian Weimer",
    "description": "Programmieren kann sehr künstlerisch sein, mal mit System, mal schön, abstrakt, schöpferisch…. Julian weiß beide Welten zu verbinden denn nach einem Kunststudium hat er sich der Informatik zugewandt. Für uns programmiert er im Team Containerbändiger und erfreut sich an technischen Herausforderungen und dem Mehrwert, den er mit seiner Arbeit für andere schaffen kann. Julian liebt die französische Backkunst und genießt sie am liebsten in Frankreich. Um den Tag entspannt ausklingen zu lassen, zeichnet er gerne und macht Musik.\n\nAch, wie er den Weg zu uns gefunden hat? Alles begann im sonnenverwöhnten Lagos am Strand bei Sonnenaufgang. Julian saß im Sand und beobachtete die rosa gefärbten Wellen. Dann kam ihm folgender Gedanke: Ich könnte ja meinen Job wechseln. Und schwupps, spülten ihn die Wellen bei uns an Land.\nSonnenaufgang? Eigentlich ist Julian eher ein Abendmensch, für besondere Momente macht er aber gerne eine Ausnahme! Den nächsten Sonnenaufgang genießt er vielleicht in Island, da möchte er nämlich gerne mal hin.",
    "image": "/JulianWeimer.webp"
  },
  {
    "name": "Kai Nordmann",
    "description": "Kai ist mit seinem weit aufgestellten Skillset bereit, alles in die Wege zu leiten, wie z.B. Backend- und Frontend-Entwicklung, Performance-Optimierung, Design-Patterns, große oder kleine Weiterentwicklungen oder testgetriebene Entwicklung mit Unit-Tests und Functional-Tests. Seine Hauptaufgabe ist jedoch die Entwicklung von flexiblen und hoch-performanten Frontend-Architekturen. Kai glaubt daran, die Welt aktiv gestalten zu müssen und ist seit mehr als 15 Jahren im Web unterwegs. Seine Gleichung: Wissen ist Macht. Internet ist Wissensverteilung und somit auch eine Machtverteilung. Seine lange Erfahrung hat möglicherweise mit zu seiner Buddhanatur beigetragen. Oder es ist die Gelassenheit, die man sich aneignet, wenn man drei Kinder großgezogen hat. In seiner Freizeit geht er gerne laufen, spielt Tennis oder Tischtennis. Am Ende eines Tages zieht es ihn schonmal in Punkrock-Bars, wo man ihn am Kicker oder stehend an der Theke trifft, bereit zu einem Austausch über das Leben.",
    "image": "/KaiNordmann.webp"
  },
  {
    "name": "Kay Simon",
    "description": "Kay hat seine Wurzeln tief in Marburg verankert, seine Liebe zur Heimat ist unverkennbar, dennoch erkundet er die Welt mit offenen Augen und liebt Abenteuer und das Entdecken neuer Orte. Als Kind reiste er mit seinen Eltern, was ihm eine Vorliebe für Sightseeing und das Erkunden fremder Kulturen bescherte. Ein echter Global Local ;)\n\nIn Bezug auf seine Ausbildung hat Kay bereits beachtliche Erfolge erzielt. Im Januar 2023 schloss er sein Bachelorstudium in Finanzwissenschaften erfolgreich ab und ist derzeit auf dem Weg, seinen Master in Applied Data Science in Frankfurt zu absolvieren.\n\nBei seiner Arbeit als Werkstudent in der Softwareentwicklung bei den \"Shiny Musketeers\" verfolgt Kay seine Leidenschaft für detailverliebtes Frontend und benutzerfreundliche UI/UX-Designs.\n\nKay verbringt seine Freizeit gerne mit Sport, Lesen und Familienaktivitäten. Sportlich ist er ein Allrounder, der sich intensiv mit TRX beschäftigt hat und derzeit seine Hingabe für Crossfit auslebt. Lesen ist ein weiteres Hobby von ihm, wobei die Harry Potter-Bücher immer einen besonderen Platz in seinem Herzen haben werden.\n\nDie Zeit mit seiner Familie und seiner Freundin ist für Kay von unschätzbarem Wert. Die sonntäglichen Kartenspiele, insbesondere Rommé, begleitet von gutem Kaffee, sind für ihn Momente der Entspannung und des Zusammenseins.",
    "image": "/KaySimon.webp"
  },
  {
    "name": "Kolja Lubitz",
    "description": "Kolja lebt im schönen Bremen wo er nach Feierabend am liebsten mit seinem Boot eine Runde auf dem Wasser dreht. Dabei wird das ein oder andere kleine dunkle Wölkchen, das über ihm schwebt, vielleicht eins von seinen Bienenvölkern sein.\n\nZu uns gestoßen ist er, weil er auf der Suche nach neuen coolen Django Entwicklern war. Er hat ein gutes Auge dafür, Problemstellen zu identifizieren und Lösungen zu finden und arbeitet am liebsten mit Django und Python, weil er da am produktivsten sein kann. Jeden Dienstag trifft er sich zum Nerdabend wo er an seinen Hobbyprojekten arbeitet, wobei er auch ein Spiel entwickelt hat was man auf mehrere Geräte herunterladen kann.\n\nEr schätzt die Ruhe der Nacht, mag das Land und auch die Stadt und wenn er in Urlaub fährt, klemmt er sich einfach sein Zelt aufs Dach und sucht nach von ihm noch unentdeckten schönen Orten.",
    "image": "/KoljaLubitz.webp"
  },
  {
    "name": "Kotyba Alhaj Taha",
    "description": "Kotyba kommt gebürtig aus Syrien und hat in Leipzig eine neue Heimat gefunden. Nach seinem Informatikstudium verstärkt er uns nun im Backend des Teams Paketboten und arbeitet dort mit Pycharm und VS code. Nach getaner Arbeit schwingt Kotyba sich aufs Fahrrad, geht Wandern oder liest und hält sich nebenbei über das aktuelle Weltgeschehen auf dem Laufenden. Seinen Lieblingsplatz, seine Heimatstadt Deir Ezzor, musste er leider verlassen, er hofft aber, dort irgendwann wieder Urlaub machen zu können. Ein geheimes Talent hat Kotyba bei sich noch nicht entdeckt. Vielleicht kann er den Text des Films „V wie Vendetta“ komplett mitsprechen? Vielleicht kann er auch eine schärfere Pizza essen als alle anderen Ambinauten? Was auch immer es ist, wir versuchen es herauszufinden!",
    "image": "/KotybaAlhajTaha.webp"
  },
  {
    "name": "Laura Chlebusch",
    "description": "Laura hat als Schülerin der 'School of Games' eine Ausbildung zur Mediengestalterin absolviert mit einer Spezialisierung als Game Artist. Im Leben ist es ihr wichtig etwas zu machen, dass ihr Spaß macht und bei dem sie ihre Kreativität ausleben kann. Dazu passt Japan als ihr Sehnsuchtsort: Glitzer, Glamour, Zen-Gärten, Tempel und Cosplay. Cosplay stammt aus Japan und bedeutet übersetzt 'Kostümspiel'. Es beinhaltet meist das Tragen von Kostümen aus animierten Filmen und Manga-Comics. Und so sehr Laura es begeistert beim Cosplay in ein häufig selbstgeschneidertes Kostüm zu schlüpfen, so wenig trägt sie im Alltag eine Maske, sondern ist einfach sie selbst. Zwei daily Reminder hat sie aus dem Cosplay mit in ihr Leben genommen: 1.) 'I can do anything' und 2.) 'Positivity is a choice'. Keine Wahl hat Laura dagegen, wenn vor ihr Schokolade steht. Dann muss sie einfach zugreifen, wie sie uns als persönlichen Fakt verraten hat. Ihre Hobbys sind Zeichnen, Tanzen, Designen, Zocken, Cosplay natürlich und etwas mit ihrem Hund zu unternehmen.",
    "image": "/LauraChlebusch.webp"
  },
  {
    "name": "Lea Porten",
    "description": "Dürfte Lea sich zwei Worte aussuchen die ihre Arbeit beschreiben, wären es 'zeitlos' und 'auf das Wesentliche reduziert'. Lea hat nachhaltiges Design studiert und ein Diplom in Produkt- und Kommunikationsdesign in der Tasche. Der Mensch und seine Bedürfnisse stehen im Mittelpunkt ihrer Arbeit als UX-Designerin im Team Color Squad. Lea ist eine disziplinierte Getting-Things-Done-Nerdin und sie kann auch sehr gut zuhören. Eine glückliche Kombination, die wir alle sehr an ihr schätzen. In Mexiko hat es ihr auf ihren Reisen besonders gut gefallen, da ihr so viel Offenheit entgegen gebracht wurde. Trotz noch holperigem Spanisch und einem blassen Teint. Gut möglich, dass sie sich mal entscheidet sich von dort remote den Sprint-Meetings zuzuschalten. Sollte es mal so kommen, sind wir natürlich echte Gönner*innen und halten es aus, wenn wir dann neben ihr blass aussehen. Privat entspannt Lea am besten in Gesellschaft ihrer Freunde und ist mit schlechten Witzen immer vorne mit dabei.",
    "image": "/LeaPorten.webp"
  },
  {
    "name": "Lena Harnisch",
    "description": "Lena ist eine wundervolle Unterstützung in unserem Orga- und Coach-Team.\n\nSie ist Ansprechpartnerin für Reisebuchungen, wirkt beim Onboarding in Bezug auf die Hardwarebereitstellung mit, verwaltet den Bürobedarf und ist als Coach Vertrauensperson für ihre Coachees. Außerdem ist sie eine Lifecycle-Überlebenskünstlerin, weil sie neben den Aufgaben im Office auch privat super viel im Griff hat. Selbst wenn ihre Waschmaschine mal den Geist aufgibt, packt sie das Problem direkt an und managed nebenbei noch den Family-Alltag. Ihre Liebe zu Sprachen hat Lena mit einem Bachelor in Romanistik (Französisch/Italienisch) vertieft. In ihrer Freizeit spielt sie gerne Brettspiele, bastelt und näht sehr gerne. Abends lässt sie sich mit Garten- und Einrichtungsserien für ihre Wohnung und den Garten inspirieren oder spielt eine Runde Darts im Wohnzimmer.",
    "image": "/LenaHarnisch.webp"
  },
  {
    "name": "Luc Vogelsberger",
    "description": "Luc kommt aus dem Ruhrgebiet, dem Melting Pot Deutschlands und bei ihm selber verschmelzen auch viele unterschiedliche Interessen miteinander. Er ist immer für neue Sportarten zu haben oder mal ganz klassisch in der Muckibude anzutreffen. Seine Homebase ist jedoch das Calisthenics (Training), zu dem er immer gerne zurück kommt. Die Begeisterungsfähigkeit liegt ihm einfach in den Genen. Was ihn an der Webentwicklung begeistert, ist die Möglichkeit, aus dem Nichts etwas neues zu schaffen und aus Ideen Konzepte zu entwicklen. Was man ihn niemals sagen hören wird: „Ich schaffe den Burger nicht. Möchtest Du den Rest?“",
    "image": "/LucVogelsberger.webp"
  },
  {
    "name": "Maniza Cisse",
    "description": "Sie ist im schönen Freiburg bei Breisgau geboren, wo sie, wenn sie frei und Zeit hat, am liebsten mit ihren Brüdern und Nichten den Kochlöffel schwingt.\n\nAls Werkstudentin im Bereich Mediendesign, begeistern sie an ihrer Arbeit die vielen verschiedenen Lösungswege und Interpretationen eines Auftrages.\n\nMorgens hat sie es gerne ruhig und dann ist sie am produktivsten. Dafür ist sie am Abend am liebsten mit Menschen zusammen. Wenn sie Feierabend hat, geht sie am liebsten zum Yoga oder zum Schwimmen oder hält auch manchmal nur ihre Nase in die Sonne.\n\nWegen der hohen Reizüberflutung sind ihr große Städte etwas zu anstrengend. Dafür schätzt sie das Landleben, wo sie sich ihren kreativen Hobbys widmen kann. Dazu gehören z.B. Töpfern und Tätowieren. Sie steht auf Marvin Gaye und \"Right On\" ist ihr Ohrwurm.\n\nBei so vielen Interessen kann es ihr dann auch schon mal passieren, dass sie statt der leeren Schachtel für den Müll, ihren MP3-Player in den Eimer wirft. Wo sie ihn dann erst nach längerem Suchen, obwohl sie die leere Schachtel immer noch in der Hand hat, wiederfindet.\n\nFür ihren Traumurlaub würde sie gerne ein ganzes Jahr an der Afrikanischen Küste surfen .",
    "image": "/ManizaCisse.webp"
  },
  {
    "name": "Marc Düvel",
    "description": "Innerhalb kürzester Zeit hat Marc es geschafft, in der Nähe von Ehrenfeld eine schöne Wohnung mit Wintergarten zu finden, in der auch noch seine zwei Katzen Pip und Mascha willkommen sind. Wir wissen auch nicht genau, woran es liegt, ahnen es aber. Der Fachinformatiker für Anwendungsentwicklung hat es im Kopf und im Herzen. Die Strecke zu unserer Agentur legt der Wahl-Kölner seitdem auf einem seiner vielen Skateboards zurück. Für den gebürtigen Ostfriesen fing das Programmieren damit an, dass er als Teenager mit RPG-Makern herum experimentiert hat. Bis heute geht es für Marc nicht ohne GTA-Spiele sowie Chili con Carne und lieber Kölsch als Jever. Wer hätte das gedacht!",
    "image": "/MarcDuvel.webp"
  },
  {
    "name": "Marcel Ulbrich",
    "description": "\n\nMit flinken Fingern und geschärften Sinnen setzt Marcel seinen Fokus auf den Bereich Frontend und unterstützt sein Team bei der Umsetzung von Nutzeroberflächen. Der Fachinformatiker arbeitet hauptsächlich mit React und wird auch Python und damit verbundene Tools kennen lernen, um ebenso im Backend mitwirken zu können. Marcel hat große Freude daran, projektorientiert zu arbeiten und eine gute lebendige Feedbackkultur zu pflegen, ganz im Sinne unserer Ambientwerte. Privat widmet er sich dem Thema Smart Home. Dazu überlegt sich Marcel neue innovative Lösungen, um Dinge zu automatisieren oder zu digitalisieren. Um seinen Akku wieder aufzuladen, bereitet er sich eine Menge super leckeres Essen zu. Bei einem guten Film wird geschlemmt, bis das Foodkoma erreicht ist.",
    "image": "/MarcelUlbrich.webp"
  },
  {
    "name": "Marius Burfey",
    "description": "Marius ist unser Problemlöser. Es gab eine Zeit, in der er Hardwarekomponenten programmiert hat, aber heute beschäftigt er sich lieber mit Webentwicklung, Docker und Docker-Orchestrierung sowie dem Deployment von Cloud-Infrastrukturen. Da er ein gewisses Händchen hat, Unlösbares in überraschend schneller Zeit lösbar zu machen, wurde ihm teamintern der Spitzname “Meister” verliehen. Diesem Namen macht er bis heute als Ambient-Tech-Evangelist alle Ehre. So viel Spaß er auch mit Herausforderungen und Hardware-Basteleien hat, so ungern arbeitet er an Standardaufgaben und allem, was mit der Verschönerung von Frontends zu tun hat. Seine selbstständig entwickelten “Designs” haben bereits einen gewissen Kultstatus. Das geborene Landei aus dem Oberbergischen schätzt das Motorradfahren, sonnige Grillnachmittage und gemütliche Kneipenabende. Außerdem pflegt er Dank unzähliger Dorffeste eine ganze spezielle Hassliebe für Schlagermusik.",
    "image": "/MariusBurfey.webp"
  },
  {
    "name": "Marius Focke",
    "description": "Marius ist ein frischluftliebender Ur-Eifeler mit Leidenschaft fürs Web. Er hat in Köln technische Informatik im Schwerpunkt Software Systeme studiert und ist seither ein sehr geschätzter Teil unseres Teams. Auch wenn er sehr naturverbunden ist, züchtet er keine Blumen und Bäume, stattdessen effizienten Code auf Basis von Django und das überwiegend im Backend. Auch Docker ist eine seiner Stärken und wird eingesetzt, wo immer es möglich ist. Und sollte Unterstützung im Frontend benötigt werden, kann er auch dort mit Angular 2 und React einspringen. Privat verbringt er viel Zeit mit seinen vier Hunden: zwar kann er sie noch nicht programmieren, dafür bildet er sie als Rettungshunde aus.",
    "image": "/MariusFocke.webp"
  },
  {
    "name": "Marvin Brüheim",
    "description": "Mit an Bord unserer Crew ist Marvin. Der gebürtige Kölner verstärkt uns als Frontendentwickler. Er begleitet und unterstützt die Entwicklung unserer Web-Oberflächen. Marvin ist begeisterter Wassersportler. Mit seinem Wakeboard unter den Füßen, schießt er übers Wasser und wagt sich auch mal den ein oder anderen Stunt. An Land spielt er gerne Badminton, Basketball und Beach-Volleyball. An warmen Sommertagen schlendert er, mit einem Cappuccino in der Hand, durch die Straßen Köln-Ehrenfelds, trifft gerne seine Freunde und isst am liebsten Sushi. Seine Urlaubsreiseziele richten sich stets nach der Sonne. An langen Sandstränden mit dem Blick aufs Meer kann er am besten neue Lebensenergie tanken. Ein wahrer Sonnenanbeter.",
    "image": "/MarvinBrüheim.webp"
  },
  {
    "name": "Marvin Geuecke",
    "description": "Vor einigen Jahren erblickte Marvin im schönen Schmallenberg im Sauerland das Licht der Welt. Wie der Name vermuten lässt, gehört Schmallenberg nicht zu den größten und bekanntesten Metropolen unseres Planeten. Vielleicht ist dies eine der Ursachen, warum Marvin es liebt zu reisen und andere Kulturen kennenzulernen. Ein typischer Touriurlaub im Hotel ist allerdings nichts für ihn – lieber auf eigene Faust ferne Länder erkunden, wandern und die Natur genießen. Dabei dient ihm auch schonmal eine Kokosnuss als Kopfkissen. Hätte Marvin einen Wunsch frei, wäre er stolzer Besitzer einer Blockhütte im Wald. Steht gerade keine größere Reise an, ist Marvin auf Trödelmärkten unterwegs – er liebt alte und außergewöhnliche Dinge – auch den Zylinder auf seinem Foto konnte er auf einem Trödelmarkt ergattern.",
    "image": "/MarvinGeuecke.webp"
  },
  {
    "name": "Matthias Tellen",
    "description": "Hallo und ahoi! Nach einem Berufsstart in hardwarenaher Programmierung setzte Matthias nochmal ein Bachelor Studium der Informatik drauf und hat seinen Anker in der Webentwicklung gesetzt. Ihn begeistert an der Webentwicklung vor allem die Iterationsgeschwindigkeit und die Bandbreite an Problemen und Aufgaben, an denen er arbeiten kann. Am liebsten bringt er sich zur Zeit ins Backend mit ein. In seiner Freizeit heißt es allerdings eher backbord und steuerbord, wenn er segeln geht oder sich in die Luft schwingt beim Paragliden. Immer dem Wind nach!",
    "image": "/MatthiasTellen.webp"
  },
  {
    "name": "Max Sahler",
    "description": "So kann jeder Tag beginnen! Verlangt der Gaumen am Morgen wieder mal nach einem Heißgetränk der Extraklasse mit optimalem Nutzererlebnis, wendet man sich für den ersten Kaffee im Büro am besten an Max. Der selbsterklärte Kaffee-Nerd wiegt dir die Bohnen, wenn möglich grammgenau ab, mahlt die perfekte Menge für die Extra-Frische und macht anschließend das Verhältnis von Wassertemperatur und Brühzeit zur persönlichen Wissenschaft. Der studierte Mediendesigner kann aber nicht nur Präzision, sondern lebt auch Kreativität und vielseitiges Interesse. Das drückt auch seine Spotify-Statistik aus, die behauptet seine Lieblingsmusik bestünde aus 255 verschiedenen Genres. Zufall?! Wir glauben nicht, denn die Zahl 255 hat in der Informationstechnik eine besondere Bedeutung und hat Max damit wohl unterbewusst den Weg zu uns gedeutet. Gut für uns, dass der gebürtige Bonner, der in einer früheren Lebensphase einmal Pilot werden wollte, stets auf dem Boden geblieben ist und uns mit seiner begeisterungsfähigen, harmonieliebenden und umgänglichen Art sowohl fachlich als auch menschlich seit Januar 2021 bereichert. Wenn Max nicht gerade mit Sketch, Figma oder Adobe CC großartige Designs auf den Weg bringt bleibt er auch in seiner Freizeit und im Urlaub wissbegierig und interessiert. Dort gestaltet er dann seine eigene perfekte User Experience auf Städte- und Kulturreisen, mit einem guten Buch unterm Arm, beim Joggen im Park oder beim Ausprobieren neuer origineller Kochrezepte.",
    "image": "/MaxSahler.webp"
  },
  {
    "name": "Michael Agel",
    "description": "Michael ist in Paderborn aufgewachsen und vor ein paar Jahren nach Köln gezogen, um endlich einmal Großstadt-Luft zu schnuppern. Durch seine Ausbildung zum staatlich geprüften Informatiker (Softwaretechnologie) am bib International College in Paderborn brachte er die besten Voraussetzungen mit, um im Team „Internauts“ durchzustarten. An seiner Arbeit begeistert Michael, Teil dieses sympathishen Teams zu sein, täglich etwas voneinander zu lernen, Wissen auszutauschen und gemeinsam großartige Dinge zu bauen.\n\nMit seinem persönlichen Ohrwurm „Can’t stop“ von den Red Hot Chili Peppers im Ohr gibt es meist kein Halten mehr, wenn Michael einmal im Programmier-Tunnel ist. Dann baut er performante, benutzerfreundliche Backendlösungen und Schnittstellen oder perfektioniert seine Fähigkeit mit Tieren zu sprechen: Über Parsel, Python, oder zu später Stunde als Nachteule, man weiß es nie genau.\n\nSinkt der Blutzuckerspiegel dabei mal, greift Michael gerne auf bunte Süßigkeiten (Gummibärchen, M&M’s) zurück. Dabei gilt: Gegessen wird erst, wenn sie nach Farben sortiert sind. Es wird gemunkelt, dass er dafür sogar einen eigenen Sortieralgorithmus entwickelt hat.\n\nEine Herausforderung bleibt in Michaels Leben aber trotz Optimierungsexpertise nach wie vor ungelöst: Wie findet man innere Ruhe, wenn der Kaffee so gut schmeckt?!\n\nSein perfekter Feierabend beinhaltet häufig einen kleinen Spaziergang in der Natur, ein paar Folgen einer unterhaltsamen Serie oder ein nettes Computer-Spiel aus den Genres RPG‘s, Rennspiele oder Adventures.",
    "image": "/Default.webp"
  },
  {
    "name": "Michael Rommelfänger",
    "description": "Als passionierter Frontend-Entwickler ist Michael davon überzeugt, dass das Internet ein schöner Platz sein sollte, gleichermaßen auf der Wasseroberfläche und auch tief im Ozean darunter. Es geht nicht darum, woher man die Dinge nimmt, sondern wie man sie gestaltet. Code sollte für jeden verständlich sein, der ihn liest und vor allem: zeitgemäß. Die Glücksfarbe des gelernten Medien- und Informatikwissenschaftlers ist schwarz, auch wenn er ausgerechnet heute zum Fototermin das erste Mal ein weißes T-Shirt getragen hat. Nicht im Bild sind seine Vorlieben für schwarz in Form von Kaffee, Humor, Bart und Sonnenbrillen. In seiner Freizeit geht Michael gerne auf Konzerte oder schraubt an Zweirädern herum. Den Weg zur Arbeit kann der Fahrradliebhaber als Ur-Ehrenfelder dagegen sogar zu Fuß zurücklegen. Angeber!",
    "image": "/MichaelRommelfänger.webp"
  },
  {
    "name": "Michael Voigt",
    "description": "Michael übernimmt in unseren Projekten mit einer Eselsgeduld Aufgaben im Front- und Backendbereich und setzt dabei auf unseren Lieblings-Technologie-Cocktail, Django und React.\n\nEr stellt immer sicher, dass sämtliche Prozesse einwandfrei funktionieren und betreut die Systementwicklung in allen Phasen. Der gelernte Physiker freut sich sehr über neue Herausforderungen und findet mit seinem Team optimale Lösungen.\n\nIm Office begegnet man ihm stets mit einem Lächeln im Gesicht. Auch wenn er selbst behauptet, er sei ein Morgenmuffel, hat er schon in der Früh ein nettes Wort auf den Lippen. Vielleicht liegt es aber auch daran, dass er dann in Gedanken zuhause ein paar Baumstämme drechselt, bereits seine nächste Radtour durch Europa plant oder ein fiktives Tischtennismatch im dritten Satz mit einem gewagten Vorhand Flip für sich entscheidet.",
    "image": "/MichaelVoigt.webp"
  },
  {
    "name": "Michael Steiner",
    "description": "Michael ist 'ne echte kölsche Jung'. Geboren und aufgewachsen in der Domstadt, hat ihn schon im Kindesalter die Faszination für PCs und Spielekonsolen und insbesondere deren rasante Entwicklung gepackt. Nach seiner Ausbildung zum IT-Systemkaufmann, studierte er Informatik in St. Augustin. Echte Rheinländer kennen das schmucke Örtchen nicht weit von Köln. An der Webentwicklung begeistert ihn, dass man damit heutzutage viele Geräte und Gerätekategorien erreichen kann. Sitzt er nicht am PC, fährt er gerne Fahrrad, fotografiert oder hört Musik - unter anderem Die Ärzte oder The XX. Sein neuestes Hobby ist das Jonglieren. Ein großer Traum von ihm ist eine Reise nach New York, da er bis jetzt vorwiegend Europa erkundet hat.",
    "image": "/MichaelSteiner.webp"
  },
  {
    "name": "Miriam Fassbender",
    "description": "Die waschechte Kölnerin und gelernte Hotelfachfrau hat immer ein freundliches Wort und ein Lächeln auf den Lippen. Seitdem die Fröhlichmacherin bei Ambient ist, blitzt und blinkt es nicht nur überall, es menschelt auch mehr. Im Leben begeistert sie ihre Tochter, Musik und die Schönheit der Natur - besonders in den Niederlanden. Die Landschaft, das Meer, die Menschen, die geklinkerten Häuser, die Sprache und die Poffertjes. In ihrer Freizeit geht sie gerne spazieren - nicht ohne dabei mindestens einen Baum zu umarmen. Oder sie schwingt sich auf ihr Hollandfahrrad, um im nächsten Tierpark Tiere füttern zu gehen und ein selbstgemachtes Picknick auf der nächsten Wiese zu veranstalten. Privat und bei Ambient ist sie ein Fels in der Brandung für jeden, der Hilfe braucht. Anders nog iets?",
    "image": "/MiriamFassbender.webp"
  },
  {
    "name": "Mouhamad Alsakka",
    "description": "Mouhamad hat vor vielen Jahren den Weg aus Syrien nach Erfurt und nun, und das freut uns sehr, zu Ambient gefunden, Game on!\n\nMouhamad fühlt sich sowohl im Front- als auch im Backend pudelwohl. Lösungsorientiert und im ständigen Austausch mit seinem Team, Shiny Musketeers, programmiert der Fullstack-Entwickler nach seinem morgendlichen Motivationskaffee voller Energie Web- und Single-Page Applikationen und hält sie stets auf dem neusten technischen Stand. Auf seinem jetzigen Skill-Level ausruhen kommt für Mouhamad überhaupt nicht in Frage, die Welt der technischen Neuerungen ist zu spannend und macht ja auch keine Pause. Darum nutzt er jede Gelegenheit sein Wissen zu erweitern, über Udemy-Kurse, Barcamps oder ganz einfach: Bibliothek einbinden und los geht‘s, das nächsthöhere Level fest im Blick.\n\nPrivat ist Mouhamad leidenschaftlicher Gamer und nach Feierabend ständig auf der Suche nach den neusten Spielen. Online spielt er regelmäßig League of Legends und New World mit seinem Freunden. Auch Gamer müssen essen und Energie für die nächsten Runden tanken: Dabei gibt es bei Mouhamad Spezialitäten aus der arabischen Küche und gerne auch mal eine Pizza.",
    "image": "/MouhamadAlsakka.webp"
  },
  {
    "name": "Niklas Brocker",
    "description": "Niklas liebt NicNacs, ist ein geborener kölsche Jung und hat seinen Bachelor in Medieninformatik mit einem Master in Computer Science Media gekrönt. Das Schwabenland hat er schätzen gelernt, aber sein 6-monatiges Praktikum hat er damals zum Glück bei uns in Köln verbracht. Seitdem unterstützt er uns tatkräftig, erst als Werkstudent und mittlerweile als erfahrener Vollzeitmitarbeiter bei unseren Projekten. Niklas reizt beim Programmieren besonders das logische Denken, die Kreativität und die Herausforderung, eine Lösung zu finden. Durch seine Zeit als Spieler in einem Bundesligabasketballteam weiß er, es gibt immer einen Weg zum Ziel zu kommen: Korb versenkt!  'You can practice shooting eight hours a day, but if your technique is wrong, then all you become is very good at shooting the wrong way. Get the fundamentals down and the level of everything you do will rise.' (Michael Jordan)",
    "image": "/NiklasBrocker.webp"
  },
  {
    "name": "Olga Ivanova",
    "description": "Olga bereichert uns im Frontend mit effizientem Code und ist unsere Entwicklerin auf Umwegen. Die gebürtige Russin kam 2017 für einen Studienplatz in Sozialwissenschaften nach Berlin. Über Projekte mit Entwickler*innen und Designer*innen hat sie ihre Leidenschaft für das Frontend entdeckt und sich kurzerhand das Coden selbst beigebracht. Neben ihrem Master in Sozialwissenschaften, hat sie ihren Bachelor in Politikwissenschaften gemacht und hat schon ein eigenes Buch geschrieben. Hut ab!\n\nOlga verbringt viel Zeit am Laptop und entwickelt mit einem ihrer Kumpels eine eigene App. Wenn sie mal keinen Code schreibt, zeichnet sie auch gerne. Zudem spricht sie jeden Tag drei Sprachen. Im Urlaub tankt sie am liebsten viel Sonne an den Stränden Portugals oder besucht ihre Familie in Moskau.",
    "image": "/OlgaIvanova.webp"
  },
  {
    "name": "Oliver Schumacher",
    "description": "Abi in der Tasche, ab auf die Uni und Wirtschaftsinformatik studieren. So Plan A. Dann kam Plan B zum Zug und Oli hat eine Ausbildung zum Fachinformatiker für Anwendungsentwicklung bei uns gemacht. Die Entscheidung für die Ausbildung fiel, weil sie praxisintensiv und abwechslungsreich ist und das Programmieren im Fokus steht. Die Ausbildung hat er 2023 abgeschlossen. Damit jetzt bloß keine Langweile entsteht, fängt er einfach noch ein Studium der Mathematik an. Kann man mal machen..Daneben fasziniert ihn bis heute am meisten Datascience. Wenn man ihn nicht beim Analysieren von Daten antrifft, findet man ihn sicherlich beim Sport. Er ist ehemaliger American Football Spieler und großer Kansas City Chiefs Fan. Heute spielt er Fussball in seiner Dorfmannschaft und auch als Teilnehmer des lokalen Schützenfestes ist er in seinem Heimatdorf allseits bekannt.",
    "image": "/OliverSchumacher.webp"
  },
  {
    "name": "Oliver Wiese",
    "description": "Oliver ist unser zweiter Azubi der ersten Stunde und hat bei uns seine Ausbildung zum Fachinformatiker für Anwendungsentwicklung gemacht. Jetzt freuen wir uns sehr, dass er nach der Ausbildungs bei uns bleiben wollte und uns als Webentwickler unterstützt! Schon früh entdeckte der Kölner seine Begeisterung für die digitale Welt. In Onlinerollenspielen vertiefte er seine Leidenschaft und fing an, kleine Montagen aus Clips zusammen zu schneiden. Wenn man ihn nicht in der Gamingwelt antrifft, findet man Oli sicherlich beim Sport. Am liebsten sind ihm freie Trainingseinheiten mit dem eigenen Körpergewicht und so wenig Equipment wie möglich, um überall und zu jeder Zeit trainieren zu können. Burpees, Squats und Push-Ups - fertig ist das Workout. Training bedeutet für ihn Gesundheit. Und die Freiheit essen zu können, was Zunge und Gaumen begehren. Für ihn heisst das Pizza, Paniertes und Zartbitter-Süßkram. Trotzdem alles in Maßen und nicht in Massen.",
    "image": "/OliverWiese.webp"
  },
  {
    "name": "Parimah Ziaei",
    "description": "Parimah ist laut ihrer eigenen Aussage durch Glück im Internet auf Ambient gestoßen, oder war es genau andersherum und Ambient hatte Glück?\n\nSo oder so sind alle sehr glücklich, dass die geborene Iranerin bei uns gelandet und durchgestartet ist. Als passionierte Python Backend Developerin, die bereits im Iran ihr eigenes Start-Up aufgebaut hat, versorgt sie ihr Team am laufenden Band mit Services, API’s und Co.\n\nNicht nur was Programmiersprachen angeht ist sie eine schnelle und enthusiastische Lernerin. Sie hat im Rekordtempo Deutsch gelernt, hat ihre ersten selbstgemalten Bilder verkauft und nimmt immer wieder neue Herausforderungen an.\n\nEgal ob Python oder Django, Acryl oder Öl, wenn Parimah etwas anpackt, dann läuft es wie geschmiert. Neben ihrem nächsten exotischen Urlaubsziel, irgendwo an den Amazonas zu fahren, verbringt sie ihren Feierabend unter anderem mit Sport und Kochen. Vielleicht findet sie bei all den neuen Themen in ihrem Leben auch bald wieder Zeit für ihr altes, geliebtes Hobby:\n\nPS: Piano Spielen",
    "image": "/ParimahZiaei.webp"
  },
  {
    "name": "Patrick Wilkes",
    "description": "Groß geworden im bergischen Land, im Städtchen Gummersbach, ist Patrick im Herzen ein Naturbursche geblieben. Die Natur zu erleben und zu entdecken ist in seinen Wurzeln tief verankert. Zum Glück wurde ihm gleichzeitig die Neugierde am Tüfteln mit in die Wiege gelegt. Lautsprecher, Staubsauger und Toaster wurden als Kind auseinander genommen, um deren Aufbau und Funktionen zu erfahren. Als er dann die digitale Welt entdeckte, war es um ihn geschehen. Seine Begeisterung, das Leben digital zu erleichtern, ebnete ihm den Weg zur Webentwicklung und heute studiert er Informatik. Programmieren ist für ihn ein Mix aus Werten wie Einfachheit, Feedback, Kommunikation und Respekt, die bei Ambient auf fruchtbaren Boden fallen. Die perfekte Symbiose aus Landei und Entwicklermoral.",
    "image": "/PatrickWilkes.webp"
  },
  {
    "name": "Peter Bergen",
    "description": "Peter kommt aus der Eifel und liebt das außerstädtische Leben. Der erfahrene Fachinformatiker für Anwendungsentwicklung lebt dort mit seiner Frau, seinem Sohn und seinem Shiba Inu Kaito. Sein Lieblingshobby Fußball hat er zeitbedingt an den Nagel gehangen und stattdessen neue Hobbys für sich entdeckt, wie z.B. Fotografie, Bildbearbeitung und vor allem Handwerksarbeiten an seinem Haus und auf seinem Grundstück. Ein Entwickler im Haus erspart den Zimmermann. Wenn man Peter anruft und fragt, was er macht, kann es vorkommen, dass er gerade auf einem Bagger auf seinem Grundstück das Loch für eine Schaukel aushebt. Oder für einen Pool? Alle Großstädter werden jetzt wahrscheinlich blass um die Nase. Das Privileg der Eifeler! Trotzdem züchtet er als mindestens Teilzeitvegetarier keine Hühner oder Schweine, sondern effizienten Code auf Basis von PHP, symfony, Django und React. Wer ihn kennt, darf ihn übrigens gerne Piet nennen.",
    "image": "/PeterBergen.webp"
  },
  {
    "name": "Philip Niebecker",
    "description": "Philip hat in seinem Studium der Wirtschaftsinformatik die perfekte Symbiose von technischen und betriebswirtschaftlichen Themen gefunden. Er geht immer gerne neue Wege und kann gar nicht anders, als Veränderungen anzustossen wenn sich ihm Möglichkeiten hierfür bieten. Abwechslungen sind für ihn auch Gegensätze, wie Lachsfarmen und Laptop, wie beim Urlaub in Norwegen, zwischen Flachland und Bergen. Wie beim Kochen mit Kurkuma oder Oregano. Ihm kommt es auf die Essenz an, um so mehr Zeit für die wichtigen Dinge im Leben zu haben. In technisch heißt das für ihn: Klare Akzeptanzkriterien und Clean Code. Privat bedeutet es für ihn: Hab Zeit für die wichtigen Menschen in deinem Leben und mach es einfach.",
    "image": "/PhilipNiebecker.webp"
  },
  {
    "name": "Pooya",
    "description": "Wish you were here von Pink Floyd ist nicht nur ein starker Song, sondern eines von Pooya’s Lieblingsliedern. Nach unserem ersten Remote-Kennenlernen haben wir uns ebenfalls sehr gewünscht, dass er hier bei Ambient wäre und das Glück war uns hold! Denn neben Billiard, Kartentricks- und Spielen schreibt er sauberen, wiederverwendbaren Code, löst Probleme, bringt neue Lösungsansätze ins Spiel und lernt neue Technologien, die begeistern.\n\nIm ersten internationalen Team, den Internauts, trumpft Pooya regelmäßig mit seinen ausgezeichneten Python-Skills und arbeitet, wie wenn er Billiard spielt: Eine Aufgabe nach der anderen abarbeitend, immer einen Schritt vorausdenkend und dabei das Ziel fokussiert vor Augen.\n\nGeboren in der wunderschönen Stadt Rasht im Iran, in der Nähe des Kaspischen Meeres, und aufgewachsen in Teheran hat Pooya schon früh gemerkt, dass das Internet und IT die Menschen überall auf der Welt verbindet und unser Leben signifikant beeinflusst. Dieser Gedanke treibt ihn an und daran wirkt er nun mit viel positiver Energie aus Deutschland aus mit.\n\nUm ihm auch bezüglich seiner Freizeitpläne mal kurz in die Karten zu schauen: Pooya reist gerne, zaubert sich ein leckeres Persisches Gericht oder trifft sich zu guten Gesprächen mit Freunden und gönnt sich dabei auch mal ein kühles, lokales Bier.",
    "image": "/Pooya.webp"
  },
  {
    "name": "Robin Zachmann",
    "description": "🤓",
    "image": "/Robin.webp"
  },
  {
    "name": "Ronny Vedrilla",
    "description": "Ronny, unser gebürtiger Österreicher, absolvierte sein Studium der Wirtschaftsinformatik an der Universität zu Köln und ist eines unserer erfahrendsten Teammitglieder. Er liebt Django, funktionale Apps und geht in der Rolle auf, unsere nicht-deutschsprachigen Mitarbeiter an allen Fronten zu unterstützen. Auch unter Druck bleibt er locker, arbeitet konzentriert und gleicht stressige Phasen mit dem Versuch aus, englischen Tee und Club Mate im Büro populär zu machen. Auch deswegen ist er einer unserer Ambient-Tech-Evangelists und hilft Teammitgliedern mit seiner freundlichen Art sowie seinem Python/Django-Knowhow. Oft bringt der kommunikative Fußballfan das Team dazu, Abende in gemeinsamer Runde ausklingen zu lassen. Ist er gerade mal nicht im Büro, erkundet er mit seinem Trekkingrad das Kölner Umland.",
    "image": "/Ronny.webp"
  },
  {
    "name": "Ruben Schäfer",
    "description": "Ruben tippt nicht nur auf die Tasten seiner Tastatur, er spielt auch leidenschaftlich gerne Klavier. Meist spielt er die Soundtracks von Filmen oder Serien, die er zuletzt gesehen hat. Er hat sich zudem das Kochen zum Hobby gemacht, Rezepte oder Mengenangaben sucht man allerdings vergeblich. Hier wird per Augenmaß und Pi mal Daumen abgemessen und gewürzt. Seine Zutaten wählt Ruben nach Lust und Laune aus, da kommen die wildesten Konstellationen heraus wie z.b. ein Karotten-Hotdog. Bon appétit!\nSeinen Bachlor in Internet Computing möchte Ruben mit einem Master in Videospielwissenschaften in Bayreuth krönen. Bis es so weit ist, unterstützt er das Team “Die Bugcatcher” im Frontend.",
    "image": "/RubenSchäfer.webp"
  },
  {
    "name": "Sebastian Lehmacher",
    "description": "Michael übernimmt in unseren Projekten mit einer Eselsgeduld Aufgaben im Front- und Backendbereich und setzt dabei auf unseren Lieblings-Technologie-Cocktail, Django und React.\n\nEr stellt immer sicher, dass sämtliche Prozesse einwandfrei funktionieren und betreut die Systementwicklung in allen Phasen. Der gelernte Physiker freut sich sehr über neue Herausforderungen und findet mit seinem Team optimale Lösungen.\n\nIm Office begegnet man ihm stets mit einem Lächeln im Gesicht. Auch wenn er selbst behauptet, er sei ein Morgenmuffel, hat er schon in der Früh ein nettes Wort auf den Lippen. Vielleicht liegt es aber auch daran, dass er dann in Gedanken zuhause ein paar Baumstämme drechselt, bereits seine nächste Radtour durch Europa plant oder ein fiktives Tischtennismatch im dritten Satz mit einem gewagten Vorhand Flip für sich entscheidet.",
    "image": "/SebastianLehmacher.webp"
  },
  {
    "name": "Sven Esser",
    "description": "Das Wetter kommt in den Nachrichten erst zum Schluss. Leider, wie Sven findet. Der gelernte Dipl.-Meteorologe hat sein Hobby zum Beruf gemacht. Sven kann uns die verschiedenen Wolkenfamilien erklären und gleichzeitig die passende App dazu entwickeln. Als Meteorologe weiß er, wie wichtig saubere Daten sind und entwickelt für uns fleckenlose und regenwolkenfreie Software. Ebenfalls sehr am Herzen liegt ihm das Thema IT-Sicherheit und Datenschutz und er hat hierfür schon die eine oder andere Lanze bei uns im Security-Circle gebrochen. Weil Sven immer ein freundliches Wort auf den Lippen hat, hat es sich ganz natürlich ergeben, dass er außerdem einer unserer Mentoren und somit Vertrauenspersonen ist. In seiner Freizeit läuft er Halbmarathons und beschäftigt sich mit Meditation & Achtsamkeit oder beobachtet seine Katzen. Was auf das gleiche hinauslaufen kann.",
    "image": "/Sven.webp"
  },
  {
    "name": "Terry Diete",
    "description": "Terry ist Teil des Circles TNT und ihre Rolle dreht sich rund um unsere Prozesse Recruiting, People und Culture-Teamevents. Sie kümmert sich darum, die besten Teammitglieder auf unseren Ambient-Planeten zu locken und sorgt unter anderem dafür, dass niemand auf unseren Teamevents nach Hause telefonieren möchte. Mit guter Laune und Musik startet sie in den Tag und wenn es das Wetter zulässt, cruist sie mit ihrem Longboard auf der Schäl Sick am Rheinufer entlang. Die Nase in den Wind zu halten ist für sie auch die beste Methode, um den Kopf frei zu kriegen. Ihre Passions sind das Lernen von Sprachen und das Entdecken der verschiedensten Kulturen, weshalb sie bei jeder Gelegenheit durch die Welt reist oder Serien auf Spanisch/Englisch schaut.",
    "image": "/TerryDiete.webp"
  },
  {
    "name": "Tina Böing",
    "description": "Tina ist im Oktober 2014 als sechster Passagier an Bord von Ambient gegangen und hat somit bereits unsere zwei Umzüge vom Eigelstein über den Friesenplatz bis nach Ehrenfeld mitgemacht. Ganz vielleicht hat Ambient sogar sein Headquarter in Ehrenfeld, weil Tina da wohnt. Wann geht man gerne zur Arbeit? Wenn man Masken fallen lassen und sagen kann: hier kann ich, ich selbst sein. Das setzt Energien frei und kann magisch sein. Wenn es einen Raum gibt, in dem man wertgeschätzt wird. Dafür setzt sich Tina ein. Wenn Intuition zu Wissen und zu Unternehmenskultur wird. Unsere Yogalehrerin, People Managerin und systemischer Coach lebt - mit Zwischenstops in Berlin - schon so lange in Köln, dass sie noch Clubs wie die Papierfabrik, das JacksWho oder das Atomic Cafe kennt. Sie unterrichtet im zweiten Leben Yoga und lotst uns regelmäßig von unseren Schreibtischen weg - zum Mobility-Workout und Achtsamkeitmeditationen. Zu ihrem Leben gehört außerdem die Katze Polly Pullunder, der Hund Pablo Escobar und eine große Liebe für elektronische Tanzmusik. It’s all about the balance!",
    "image": "/Tina.webp"
  },
  {
    "name": "Tobias Raaf",
    "description": "So hat auch Tobias unseren Ambientplaneten gefunden und ist remote aus Aachen dabei, wo er derzeit für seinen Bachlor Informatik studiert. Als Werkstudent bringt er Kenntnisse mit, die einmal der Grundstein für mehr sein können. Tobias verstärkt das Team “Mighty Musketeers” in der Softwareentwicklung. Im Front- und Backend programmiert er klaren Code mit Django und React. Durch seine Neugier vorangetrieben, hat er schon vieles ausprobiert: Tobias übt Ukulele, spielt Diabolo und hat drei Semster Poliktikwissenschaften auf Lehramt studiert. Nach getaner Arbeit starten Tobias und seine Freunde am liebsten eine Session Dungeons and Dragons, die er teilweise auch leitet – der perfekte Feierabend. Alternativ spielt er auch Brettspiele und als selbsternannter Nerd schaut er gerne Serien oder Filme und zockt diverse Games am PC oder auf der Konsole. Sport gehört auch zu Tobias Alltag, wie ein Ball ins Netz. Da begegnet man ihm schonmal um 7 Uhr in der Früh im Fitnessstudio. Der frühe Vogel fängt den Wurm - oder doch etwa die Nachteule?",
    "image": "/TobiasRaaf.webp"
  },
  {
    "name": "Tom Pillokat",
    "description": "Als kölsche Frohnatur wird Tom unser Team „Teen Spirit“ im Bereich Frontend unterstützen. Durch seine unterschiedlichen Studentenjobs ist er schon früh in die Praxis des Programmierens eingestiegen und hat gemerkt, wie viel Freude diese Arbeit ihm macht. Besonders die Kombination aus Kreativität und Logik faszinieren ihn und er versucht dabei immer, die elegante Lösung zu finden, um mit seinem Code Anwendungen zu zaubern, die mehr Freude bringen als ein frisch gezapftes Kölsch ;)\n\nOb im Fitnessstudio, wo er fünfmal die Woche Krafttraining macht, oder bei entspannten Abendessen mit Freunden und Familie – Tom findet die perfekte Balance zwischen Technologie und Gemütlichkeit.\n\nUnd damit sein inneres Kind nicht verloren geht, spielt er regelmäßig Videospiele.",
    "image": "/TomPillokat.webp"
  },
  {
    "name": "Witali Klein",
    "description": "Witali ist ein geselliger Mensch, der es immer wieder spannend findet, neue Leute aus verschiedenen Kulturen kennenzulernen. Darum lebt er auch lieber in WGs, als alleine zu wohnen und ist immer darauf bedacht, respektvoll mit anderen umzugehen. Zu uns gekommen ist er, als er auf der Suche nach Werkstudentenstellen war und unsere Webseite hat ihn überzeugt. Er mag den visuellen Aspekt der Frontend-Entwicklung, weil man das fertige Ergebnis auch tatsächlich sehen kann. Auch Design interessiert ihn sehr - da möchte er sich in Zukunft weiterbilden.\n\nFrüh startet er in den Tag, weil er vor der Arbeit erstmal eine Runde Sport treiben möchte. Abends entspannt er dann wenn er mit seinem Hund auf dem Weg in seine Gartenlaube ist, um dort seine Tomaten, Gurken und Beeren zu ernten. Ein paar Leidenschaften hat er noch: neben Karten- und Gesellschaftsspielen interessiert er sich auch für Schallplattenspieler und hat erst neulich angefangen, eine kleine Plattensammlung aufzubauen. Und wenn er vom Urlaub träumt, dann davon, mit dem Reisevan durch Südeuropa zu touren.",
    "image": "/WitaliKlein.webp"
  }
]